<svg width="370" height="42" viewBox="0 0 370 42" fill="none" xmlns="http://www.w3.org/2000/svg">
<path d="M0.430567 19.63C0.430567 16.75 0.700567 14.125 1.24057 11.755C1.81057 9.355 2.63557 7.3 3.71557 5.59C4.79557 3.85 6.11557 2.515 7.67557 1.585C9.23557 0.624997 11.0206 0.144997 13.0306 0.144997C15.1006 0.144997 16.9156 0.639998 18.4756 1.63C20.0356 2.59 21.3406 3.955 22.3906 5.725C23.4706 7.465 24.2806 9.565 24.8206 12.025C25.3606 14.455 25.6306 17.14 25.6306 20.08C25.6306 22.51 25.3456 24.805 24.7756 26.965C24.2056 29.125 23.3806 31.015 22.3006 32.635C21.2206 34.255 19.9006 35.545 18.3406 36.505C16.7806 37.435 15.0106 37.9 13.0306 37.9C10.9606 37.9 9.14557 37.42 7.58557 36.46C6.02557 35.47 4.70557 34.15 3.62557 32.5C2.57557 30.82 1.78057 28.885 1.24057 26.695C0.700567 24.475 0.430567 22.12 0.430567 19.63ZM13.0306 35.875C14.0506 35.875 14.9956 35.485 15.8656 34.705C16.7656 33.895 17.5306 32.74 18.1606 31.24C18.8206 29.74 19.3306 27.925 19.6906 25.795C20.0506 23.635 20.2306 21.205 20.2306 18.505C20.2306 13.255 19.6306 9.22 18.4306 6.4C17.2606 3.58 15.4606 2.17 13.0306 2.17C10.6006 2.17 8.78557 3.58 7.58557 6.4C6.41557 9.22 5.83057 13.255 5.83057 18.505C5.83057 24.205 6.44557 28.525 7.67557 31.465C8.90557 34.405 10.6906 35.875 13.0306 35.875ZM32.3771 19.63C32.3771 16.75 32.6471 14.125 33.1871 11.755C33.7571 9.355 34.5821 7.3 35.6621 5.59C36.7421 3.85 38.0621 2.515 39.6221 1.585C41.1821 0.624997 42.9671 0.144997 44.9771 0.144997C47.0471 0.144997 48.8621 0.639998 50.4221 1.63C51.9821 2.59 53.2871 3.955 54.3371 5.725C55.4171 7.465 56.2271 9.565 56.7671 12.025C57.3071 14.455 57.5771 17.14 57.5771 20.08C57.5771 22.51 57.2921 24.805 56.7221 26.965C56.1521 29.125 55.3271 31.015 54.2471 32.635C53.1671 34.255 51.8471 35.545 50.2871 36.505C48.7271 37.435 46.9571 37.9 44.9771 37.9C42.9071 37.9 41.0921 37.42 39.5321 36.46C37.9721 35.47 36.6521 34.15 35.5721 32.5C34.5221 30.82 33.7271 28.885 33.1871 26.695C32.6471 24.475 32.3771 22.12 32.3771 19.63ZM44.9771 35.875C45.9971 35.875 46.9421 35.485 47.8121 34.705C48.7121 33.895 49.4771 32.74 50.1071 31.24C50.7671 29.74 51.2771 27.925 51.6371 25.795C51.9971 23.635 52.1771 21.205 52.1771 18.505C52.1771 13.255 51.5771 9.22 50.3771 6.4C49.2071 3.58 47.4071 2.17 44.9771 2.17C42.5471 2.17 40.7321 3.58 39.5321 6.4C38.3621 9.22 37.7771 13.255 37.7771 18.505C37.7771 24.205 38.3921 28.525 39.6221 31.465C40.8521 34.405 42.6371 35.875 44.9771 35.875ZM64.3235 19.63C64.3235 16.75 64.5935 14.125 65.1335 11.755C65.7035 9.355 66.5285 7.3 67.6085 5.59C68.6885 3.85 70.0085 2.515 71.5685 1.585C73.1285 0.624997 74.9135 0.144997 76.9235 0.144997C78.9935 0.144997 80.8085 0.639998 82.3685 1.63C83.9285 2.59 85.2335 3.955 86.2835 5.725C87.3635 7.465 88.1735 9.565 88.7135 12.025C89.2535 14.455 89.5235 17.14 89.5235 20.08C89.5235 22.51 89.2385 24.805 88.6685 26.965C88.0985 29.125 87.2735 31.015 86.1935 32.635C85.1135 34.255 83.7935 35.545 82.2335 36.505C80.6735 37.435 78.9035 37.9 76.9235 37.9C74.8535 37.9 73.0385 37.42 71.4785 36.46C69.9185 35.47 68.5985 34.15 67.5185 32.5C66.4685 30.82 65.6735 28.885 65.1335 26.695C64.5935 24.475 64.3235 22.12 64.3235 19.63ZM76.9235 35.875C77.9435 35.875 78.8885 35.485 79.7585 34.705C80.6585 33.895 81.4235 32.74 82.0535 31.24C82.7135 29.74 83.2235 27.925 83.5835 25.795C83.9435 23.635 84.1235 21.205 84.1235 18.505C84.1235 13.255 83.5235 9.22 82.3235 6.4C81.1535 3.58 79.3535 2.17 76.9235 2.17C74.4935 2.17 72.6785 3.58 71.4785 6.4C70.3085 9.22 69.7235 13.255 69.7235 18.505C69.7235 24.205 70.3385 28.525 71.5685 31.465C72.7985 34.405 74.5835 35.875 76.9235 35.875ZM100.86 41.815L99.825 39.475C103.515 37.945 105.54 35.65 105.54 32.275L104.685 28.45L107.115 31.87C106.485 32.68 105.585 32.905 104.73 32.905C102.885 32.905 101.355 31.825 101.355 29.665C101.355 27.55 102.975 26.425 104.775 26.425C107.295 26.425 108.645 28.495 108.645 31.645C108.645 36.505 105.585 40.195 100.86 41.815ZM143.07 19.63C143.07 16.75 143.34 14.125 143.88 11.755C144.45 9.355 145.275 7.3 146.355 5.59C147.435 3.85 148.755 2.515 150.315 1.585C151.875 0.624997 153.66 0.144997 155.67 0.144997C157.74 0.144997 159.555 0.639998 161.115 1.63C162.675 2.59 163.98 3.955 165.03 5.725C166.11 7.465 166.92 9.565 167.46 12.025C168 14.455 168.27 17.14 168.27 20.08C168.27 22.51 167.985 24.805 167.415 26.965C166.845 29.125 166.02 31.015 164.94 32.635C163.86 34.255 162.54 35.545 160.98 36.505C159.42 37.435 157.65 37.9 155.67 37.9C153.6 37.9 151.785 37.42 150.225 36.46C148.665 35.47 147.345 34.15 146.265 32.5C145.215 30.82 144.42 28.885 143.88 26.695C143.34 24.475 143.07 22.12 143.07 19.63ZM155.67 35.875C156.69 35.875 157.635 35.485 158.505 34.705C159.405 33.895 160.17 32.74 160.8 31.24C161.46 29.74 161.97 27.925 162.33 25.795C162.69 23.635 162.87 21.205 162.87 18.505C162.87 13.255 162.27 9.22 161.07 6.4C159.9 3.58 158.1 2.17 155.67 2.17C153.24 2.17 151.425 3.58 150.225 6.4C149.055 9.22 148.47 13.255 148.47 18.505C148.47 24.205 149.085 28.525 150.315 31.465C151.545 34.405 153.33 35.875 155.67 35.875ZM175.017 19.63C175.017 16.75 175.287 14.125 175.827 11.755C176.397 9.355 177.222 7.3 178.302 5.59C179.382 3.85 180.702 2.515 182.262 1.585C183.822 0.624997 185.607 0.144997 187.617 0.144997C189.687 0.144997 191.502 0.639998 193.062 1.63C194.622 2.59 195.927 3.955 196.977 5.725C198.057 7.465 198.867 9.565 199.407 12.025C199.947 14.455 200.217 17.14 200.217 20.08C200.217 22.51 199.932 24.805 199.362 26.965C198.792 29.125 197.967 31.015 196.887 32.635C195.807 34.255 194.487 35.545 192.927 36.505C191.367 37.435 189.597 37.9 187.617 37.9C185.547 37.9 183.732 37.42 182.172 36.46C180.612 35.47 179.292 34.15 178.212 32.5C177.162 30.82 176.367 28.885 175.827 26.695C175.287 24.475 175.017 22.12 175.017 19.63ZM187.617 35.875C188.637 35.875 189.582 35.485 190.452 34.705C191.352 33.895 192.117 32.74 192.747 31.24C193.407 29.74 193.917 27.925 194.277 25.795C194.637 23.635 194.817 21.205 194.817 18.505C194.817 13.255 194.217 9.22 193.017 6.4C191.847 3.58 190.047 2.17 187.617 2.17C185.187 2.17 183.372 3.58 182.172 6.4C181.002 9.22 180.417 13.255 180.417 18.505C180.417 24.205 181.032 28.525 182.262 31.465C183.492 34.405 185.277 35.875 187.617 35.875ZM206.963 19.63C206.963 16.75 207.233 14.125 207.773 11.755C208.343 9.355 209.168 7.3 210.248 5.59C211.328 3.85 212.648 2.515 214.208 1.585C215.768 0.624997 217.553 0.144997 219.563 0.144997C221.633 0.144997 223.448 0.639998 225.008 1.63C226.568 2.59 227.873 3.955 228.923 5.725C230.003 7.465 230.813 9.565 231.353 12.025C231.893 14.455 232.163 17.14 232.163 20.08C232.163 22.51 231.878 24.805 231.308 26.965C230.738 29.125 229.913 31.015 228.833 32.635C227.753 34.255 226.433 35.545 224.873 36.505C223.313 37.435 221.543 37.9 219.563 37.9C217.493 37.9 215.678 37.42 214.118 36.46C212.558 35.47 211.238 34.15 210.158 32.5C209.108 30.82 208.313 28.885 207.773 26.695C207.233 24.475 206.963 22.12 206.963 19.63ZM219.563 35.875C220.583 35.875 221.528 35.485 222.398 34.705C223.298 33.895 224.063 32.74 224.693 31.24C225.353 29.74 225.863 27.925 226.223 25.795C226.583 23.635 226.763 21.205 226.763 18.505C226.763 13.255 226.163 9.22 224.963 6.4C223.793 3.58 221.993 2.17 219.563 2.17C217.133 2.17 215.318 3.58 214.118 6.4C212.948 9.22 212.363 13.255 212.363 18.505C212.363 24.205 212.978 28.525 214.208 31.465C215.438 34.405 217.223 35.875 219.563 35.875ZM243.499 41.815L242.464 39.475C246.154 37.945 248.179 35.65 248.179 32.275L247.324 28.45L249.754 31.87C249.124 32.68 248.224 32.905 247.369 32.905C245.524 32.905 243.994 31.825 243.994 29.665C243.994 27.55 245.614 26.425 247.414 26.425C249.934 26.425 251.284 28.495 251.284 31.645C251.284 36.505 248.224 40.195 243.499 41.815ZM285.709 19.63C285.709 16.75 285.979 14.125 286.519 11.755C287.089 9.355 287.914 7.3 288.994 5.59C290.074 3.85 291.394 2.515 292.954 1.585C294.514 0.624997 296.299 0.144997 298.309 0.144997C300.379 0.144997 302.194 0.639998 303.754 1.63C305.314 2.59 306.619 3.955 307.669 5.725C308.749 7.465 309.559 9.565 310.099 12.025C310.639 14.455 310.909 17.14 310.909 20.08C310.909 22.51 310.624 24.805 310.054 26.965C309.484 29.125 308.659 31.015 307.579 32.635C306.499 34.255 305.179 35.545 303.619 36.505C302.059 37.435 300.289 37.9 298.309 37.9C296.239 37.9 294.424 37.42 292.864 36.46C291.304 35.47 289.984 34.15 288.904 32.5C287.854 30.82 287.059 28.885 286.519 26.695C285.979 24.475 285.709 22.12 285.709 19.63ZM298.309 35.875C299.329 35.875 300.274 35.485 301.144 34.705C302.044 33.895 302.809 32.74 303.439 31.24C304.099 29.74 304.609 27.925 304.969 25.795C305.329 23.635 305.509 21.205 305.509 18.505C305.509 13.255 304.909 9.22 303.709 6.4C302.539 3.58 300.739 2.17 298.309 2.17C295.879 2.17 294.064 3.58 292.864 6.4C291.694 9.22 291.109 13.255 291.109 18.505C291.109 24.205 291.724 28.525 292.954 31.465C294.184 34.405 295.969 35.875 298.309 35.875ZM317.656 19.63C317.656 16.75 317.926 14.125 318.466 11.755C319.036 9.355 319.861 7.3 320.941 5.59C322.021 3.85 323.341 2.515 324.901 1.585C326.461 0.624997 328.246 0.144997 330.256 0.144997C332.326 0.144997 334.141 0.639998 335.701 1.63C337.261 2.59 338.566 3.955 339.616 5.725C340.696 7.465 341.506 9.565 342.046 12.025C342.586 14.455 342.856 17.14 342.856 20.08C342.856 22.51 342.571 24.805 342.001 26.965C341.431 29.125 340.606 31.015 339.526 32.635C338.446 34.255 337.126 35.545 335.566 36.505C334.006 37.435 332.236 37.9 330.256 37.9C328.186 37.9 326.371 37.42 324.811 36.46C323.251 35.47 321.931 34.15 320.851 32.5C319.801 30.82 319.006 28.885 318.466 26.695C317.926 24.475 317.656 22.12 317.656 19.63ZM330.256 35.875C331.276 35.875 332.221 35.485 333.091 34.705C333.991 33.895 334.756 32.74 335.386 31.24C336.046 29.74 336.556 27.925 336.916 25.795C337.276 23.635 337.456 21.205 337.456 18.505C337.456 13.255 336.856 9.22 335.656 6.4C334.486 3.58 332.686 2.17 330.256 2.17C327.826 2.17 326.011 3.58 324.811 6.4C323.641 9.22 323.056 13.255 323.056 18.505C323.056 24.205 323.671 28.525 324.901 31.465C326.131 34.405 327.916 35.875 330.256 35.875ZM357.072 5.635H353.832L353.787 13.87C355.227 13.75 356.232 13.69 356.802 13.69C361.182 13.69 364.392 14.755 366.432 16.885C368.502 18.985 369.537 21.835 369.537 25.435C369.537 29.245 368.547 32.275 366.567 34.525C364.587 36.775 361.677 37.9 357.837 37.9C355.017 37.9 352.692 37.33 350.862 36.19C349.032 35.02 348.117 33.325 348.117 31.105C348.747 30.415 350.292 30.1 352.752 30.16C353.202 32.5 353.862 34.06 354.732 34.84C355.602 35.62 356.817 36.01 358.377 36.01C362.607 36.01 364.722 32.62 364.722 25.84C364.722 19.33 361.557 16.075 355.227 16.075C353.967 16.075 352.557 16.21 350.997 16.48V1.18H368.277C368.277 2.65 368.307 4.345 368.367 6.265C366.957 5.995 365.322 5.8 363.462 5.68L357.072 5.635Z" fill="white"/>
</svg>
