<svg width="411" height="44" viewBox="0 0 411 44" fill="none" xmlns="http://www.w3.org/2000/svg">
<g filter="url(#filter0_d_58_152)">
<mask id="path-1-outside-1_58_152" maskUnits="userSpaceOnUse" x="3" y="-1" width="405" height="38" fill="black">
<rect fill="white" x="3" y="-1" width="405" height="38"/>
<path d="M4.41367 35V33.95L7.06367 33.4C8.29701 33.1333 9.08034 32.8333 9.41367 32.5C9.74701 32.1667 9.91367 31.4833 9.91367 30.45V5.9C9.91367 4.83333 9.74701 4.13333 9.41367 3.8C9.08034 3.46667 8.29701 3.18333 7.06367 2.95L4.41367 2.4V1.35H33.0137C32.9137 1.81666 32.8303 2.28333 32.7637 2.75C32.7303 3.18333 32.7137 3.63333 32.7137 4.1C32.7137 5.2 32.797 6.25 32.9637 7.25C33.1637 8.25 33.347 9.23333 33.5137 10.2H32.4137C31.8803 8.83333 31.2137 7.6 30.4137 6.5C29.6137 5.4 28.647 4.53333 27.5137 3.9C26.3803 3.23333 25.0303 2.9 23.4637 2.9H16.2637V16.45H23.0637C24.7637 16.45 25.947 16.1333 26.6137 15.5C27.3137 14.8333 27.7637 13.8667 27.9637 12.6L28.3637 10.3H29.4137V24.15H28.3637L27.9137 21.8C27.7137 20.5667 27.2803 19.6333 26.6137 19C25.947 18.3333 24.797 18 23.1637 18H16.2637V29.45C16.2637 30.3833 16.3137 31.15 16.4137 31.75C16.547 32.35 16.8637 32.7833 17.3637 33.05C17.897 33.3167 18.7137 33.45 19.8137 33.45H23.7637C25.0303 33.45 26.147 33.25 27.1137 32.85C28.1137 32.45 29.0137 31.9 29.8137 31.2C30.6137 30.5 31.297 29.7333 31.8637 28.9L33.7637 26H34.8137C34.4803 27.5 34.1803 29.0167 33.9137 30.55C33.6803 32.05 33.5637 33.5333 33.5637 35H4.41367ZM56.9051 35.75L43.7551 4.8C43.5217 4.23333 43.2051 3.81666 42.8051 3.55C42.4384 3.25 41.9217 3.05 41.2551 2.95L38.7051 2.4V1.35H56.1051V2.4L53.6051 2.9C52.7717 3.06667 52.1217 3.28333 51.6551 3.55C51.1884 3.78333 50.9551 4.15 50.9551 4.65C50.9551 4.81666 50.9884 5.03333 51.0551 5.3C51.1551 5.56667 51.2384 5.81666 51.3051 6.05L60.5551 28.95H59.4051L68.7551 5.9C68.8551 5.66666 68.9384 5.46666 69.0051 5.3C69.0717 5.1 69.1051 4.91667 69.1051 4.75C69.1051 4.31667 68.9051 3.98333 68.5051 3.75C68.1384 3.48333 67.5551 3.28333 66.7551 3.15L63.3551 2.4V1.35H76.9551V2.4L74.0551 3C73.3217 3.16666 72.7217 3.4 72.2551 3.7C71.7884 3.96666 71.3884 4.48333 71.0551 5.25L58.7551 35.75H56.9051ZM80.8746 35V33.95L83.5246 33.4C84.7579 33.1333 85.5413 32.8333 85.8746 32.5C86.2079 32.1667 86.3746 31.4833 86.3746 30.45V5.9C86.3746 4.83333 86.2079 4.13333 85.8746 3.8C85.5413 3.46667 84.7579 3.18333 83.5246 2.95L80.8746 2.4V1.35H109.475C109.375 1.81666 109.291 2.28333 109.225 2.75C109.191 3.18333 109.175 3.63333 109.175 4.1C109.175 5.2 109.258 6.25 109.425 7.25C109.625 8.25 109.808 9.23333 109.975 10.2H108.875C108.341 8.83333 107.675 7.6 106.875 6.5C106.075 5.4 105.108 4.53333 103.975 3.9C102.841 3.23333 101.491 2.9 99.9246 2.9H92.7246V16.45H99.5246C101.225 16.45 102.408 16.1333 103.075 15.5C103.775 14.8333 104.225 13.8667 104.425 12.6L104.825 10.3H105.875V24.15H104.825L104.375 21.8C104.175 20.5667 103.741 19.6333 103.075 19C102.408 18.3333 101.258 18 99.6246 18H92.7246V29.45C92.7246 30.3833 92.7746 31.15 92.8746 31.75C93.0079 32.35 93.3246 32.7833 93.8246 33.05C94.3579 33.3167 95.1746 33.45 96.2746 33.45H100.225C101.491 33.45 102.608 33.25 103.575 32.85C104.575 32.45 105.475 31.9 106.275 31.2C107.075 30.5 107.758 29.7333 108.325 28.9L110.225 26H111.275C110.941 27.5 110.641 29.0167 110.375 30.55C110.141 32.05 110.025 33.5333 110.025 35H80.8746ZM150.466 35.7C148.966 35.7 147.583 35.4333 146.316 34.9C145.083 34.3333 143.899 33.4833 142.766 32.35C141.633 31.2167 140.483 29.8333 139.316 28.2C138.449 26.9333 137.566 25.7 136.666 24.5C135.799 23.2667 134.816 22.25 133.716 21.45C132.649 20.6167 131.316 20.2 129.716 20.2H128.416V30.45C128.416 31.4833 128.583 32.1667 128.916 32.5C129.249 32.8333 130.016 33.1333 131.216 33.4L133.916 33.95V35H116.566V33.95L119.216 33.4C120.449 33.1333 121.233 32.8333 121.566 32.5C121.899 32.1667 122.066 31.4833 122.066 30.45V5.9C122.066 4.83333 121.899 4.13333 121.566 3.8C121.233 3.46667 120.449 3.18333 119.216 2.95L116.566 2.4V1.35H130.566C135.433 1.35 139.216 2.16667 141.916 3.8C144.616 5.4 145.966 7.66666 145.966 10.6C145.966 12.1333 145.499 13.5167 144.566 14.75C143.666 15.95 142.449 16.9333 140.916 17.7C139.416 18.4667 137.766 18.95 135.966 19.15V19.25C137.499 19.2833 138.849 19.6833 140.016 20.45C141.183 21.2167 142.233 22.1833 143.166 23.35C144.133 24.5167 145.049 25.75 145.916 27.05C146.783 28.2833 147.649 29.45 148.516 30.55C149.383 31.6167 150.266 32.4833 151.166 33.15C152.099 33.8167 153.049 34.15 154.016 34.15V35.25C152.816 35.55 151.633 35.7 150.466 35.7ZM128.416 18.6H130.566C132.266 18.6 133.783 18.3167 135.116 17.75C136.483 17.1833 137.549 16.35 138.316 15.25C139.083 14.1167 139.466 12.7 139.466 11C139.466 8.33333 138.633 6.31667 136.966 4.95C135.299 3.55 132.949 2.85 129.916 2.85H128.416V18.6ZM157.921 35V33.95L160.571 33.4C161.805 33.1333 162.588 32.8333 162.921 32.5C163.255 32.1667 163.421 31.4833 163.421 30.45V5.9C163.421 4.83333 163.255 4.13333 162.921 3.8C162.588 3.46667 161.805 3.18333 160.571 2.95L157.921 2.4V1.35H175.271V2.4L172.571 2.95C171.371 3.18333 170.605 3.46667 170.271 3.8C169.938 4.13333 169.771 4.83333 169.771 5.9V30.45C169.771 31.4167 170.005 32.1667 170.471 32.7C170.971 33.2 171.921 33.45 173.321 33.45H179.821C181.121 33.45 182.271 33.2667 183.271 32.9C184.305 32.5333 185.205 32 185.971 31.3C186.738 30.6 187.388 29.8 187.921 28.9L189.971 25.4H191.021C190.688 26.8667 190.371 28.4667 190.071 30.2C189.805 31.9333 189.655 33.5333 189.621 35H157.921ZM193.629 35V33.95L196.379 33.35C197.212 33.1833 197.846 32.9333 198.279 32.6C198.746 32.2333 199.112 31.75 199.379 31.15L209.529 6.8L208.129 3.25C209.096 3.21666 209.912 3.01667 210.579 2.65C211.246 2.25 211.746 1.81666 212.079 1.35C212.412 0.849999 212.579 0.433332 212.579 0.0999993H213.179L226.029 31.3C226.329 31.9667 226.696 32.45 227.129 32.75C227.562 33.05 228.212 33.2833 229.079 33.45L231.479 33.95V35H214.279V33.95L216.879 33.45C217.712 33.2833 218.296 33.0833 218.629 32.85C218.996 32.5833 219.179 32.2333 219.179 31.8C219.179 31.6 219.146 31.4 219.079 31.2C219.012 30.9667 218.929 30.7167 218.829 30.45L209.879 7.95H210.979L201.229 31.2C201.162 31.3333 201.112 31.4667 201.079 31.6C201.046 31.7333 201.029 31.85 201.029 31.95C201.029 32.25 201.162 32.5167 201.429 32.75C201.696 32.9833 202.096 33.15 202.629 33.25L206.679 33.95V35H193.629ZM204.329 23.65L204.229 22H218.579V23.65H204.329ZM248.559 35.5C245.759 35.5 243.326 35.15 241.259 34.45C239.226 33.7167 237.626 33.05 236.459 32.45C236.726 30.9833 236.842 29.4667 236.809 27.9C236.809 26.3333 236.609 24.7667 236.209 23.2H237.859C238.059 25.2667 238.592 27.1167 239.459 28.75C240.359 30.3833 241.576 31.6667 243.109 32.6C244.642 33.5333 246.492 34 248.659 34C249.759 34 250.826 33.7833 251.859 33.35C252.926 32.9167 253.809 32.25 254.509 31.35C255.209 30.45 255.559 29.3167 255.559 27.95C255.559 26.7167 255.292 25.7 254.759 24.9C254.259 24.0667 253.342 23.3 252.009 22.6C250.709 21.9 248.859 21.15 246.459 20.35C243.459 19.3167 241.142 18.0833 239.509 16.65C237.909 15.2167 237.109 13.1833 237.109 10.55C237.109 8.81667 237.526 7.21667 238.359 5.75C239.226 4.28333 240.476 3.1 242.109 2.2C243.776 1.26667 245.826 0.799999 248.259 0.799999C249.492 0.799999 250.509 0.933332 251.309 1.2C252.142 1.46666 252.876 1.75 253.509 2.05C254.009 2.28333 254.459 2.5 254.859 2.7C255.292 2.9 255.726 3 256.159 3L257.659 2.7L257.809 2.8C257.776 3.16667 257.742 3.58333 257.709 4.05C257.676 4.48333 257.659 4.9 257.659 5.3C257.659 6.23333 257.709 7.15 257.809 8.05C257.942 8.95 258.076 9.71667 258.209 10.35C258.376 10.9833 258.476 11.4 258.509 11.6H257.259C256.692 9.7 255.976 8.06666 255.109 6.7C254.242 5.33333 253.209 4.26666 252.009 3.5C250.842 2.73333 249.509 2.35 248.009 2.35C246.742 2.35 245.642 2.63333 244.709 3.2C243.809 3.73333 243.092 4.43333 242.559 5.3C242.059 6.16667 241.809 7.11667 241.809 8.15C241.809 9.35 242.026 10.3333 242.459 11.1C242.892 11.8333 243.709 12.5167 244.909 13.15C246.142 13.75 247.926 14.45 250.259 15.25C252.692 16.05 254.609 16.9167 256.009 17.85C257.442 18.7833 258.459 19.85 259.059 21.05C259.659 22.2167 259.959 23.6333 259.959 25.3C259.959 27.3333 259.476 29.1167 258.509 30.65C257.576 32.1833 256.242 33.3833 254.509 34.25C252.809 35.0833 250.826 35.5 248.559 35.5ZM273.514 35V33.95L276.214 33.4C277.414 33.1333 278.181 32.8333 278.514 32.5C278.847 32.1667 279.014 31.4833 279.014 30.45V2.9H275.064C273.597 2.9 272.281 3.26667 271.114 4C269.981 4.7 269.014 5.66666 268.214 6.9C267.447 8.13333 266.881 9.48333 266.514 10.95H265.214C265.447 9.91667 265.631 8.85 265.764 7.75C265.897 6.65 265.981 5.55 266.014 4.45C266.047 3.35 265.981 2.31666 265.814 1.35H298.564C298.397 2.31666 298.331 3.35 298.364 4.45C298.397 5.55 298.481 6.65 298.614 7.75C298.781 8.85 298.964 9.91667 299.164 10.95H297.914C297.514 9.48333 296.931 8.13333 296.164 6.9C295.397 5.66666 294.431 4.7 293.264 4C292.131 3.26667 290.814 2.9 289.314 2.9H285.364V30.45C285.364 31.4833 285.531 32.1667 285.864 32.5C286.231 32.8333 287.014 33.1333 288.214 33.4L290.864 33.95V35H273.514ZM303.373 35V33.95L306.073 33.4C307.273 33.1333 308.039 32.8333 308.373 32.5C308.706 32.1667 308.873 31.4833 308.873 30.45V5.9C308.873 4.83333 308.706 4.13333 308.373 3.8C308.039 3.46667 307.273 3.18333 306.073 2.95L303.373 2.4V1.35H320.723V2.4L318.023 2.95C316.823 3.18333 316.056 3.46667 315.723 3.8C315.389 4.13333 315.223 4.83333 315.223 5.9V30.45C315.223 31.4833 315.389 32.1667 315.723 32.5C316.056 32.8333 316.823 33.1333 318.023 33.4L320.723 33.95V35H303.373ZM358.827 35.85L333.527 7.55V30.35C333.527 31.25 333.744 31.9167 334.177 32.35C334.61 32.75 335.327 33.05 336.327 33.25L339.827 33.95V35H326.027V33.95L328.977 33.35C330.01 33.1167 330.744 32.8 331.177 32.4C331.61 32 331.827 31.3333 331.827 30.4V6C331.827 5.26666 331.76 4.71666 331.627 4.35C331.494 3.95 331.21 3.66667 330.777 3.5C330.344 3.3 329.677 3.1 328.777 2.9L326.277 2.4V1.35H336.327L357.927 25.25L357.877 6C357.877 5.1 357.66 4.43333 357.227 4C356.827 3.56667 356.11 3.26667 355.077 3.1L351.577 2.4V1.35H365.377V2.4L362.427 3C361.394 3.23333 360.66 3.55 360.227 3.95C359.827 4.35 359.627 5.01667 359.627 5.95V35.85H358.827ZM387.995 35.55C385.528 35.55 383.178 35.15 380.945 34.35C378.745 33.55 376.762 32.4 374.995 30.9C373.228 29.4 371.845 27.5833 370.845 25.45C369.845 23.3167 369.345 20.9 369.345 18.2C369.345 15.6667 369.828 13.35 370.795 11.25C371.795 9.15 373.145 7.31666 374.845 5.75C376.545 4.18333 378.512 2.98333 380.745 2.15C382.978 1.31667 385.362 0.899998 387.895 0.899998C389.595 0.899998 391.012 1.01667 392.145 1.25C393.312 1.45 394.295 1.71667 395.095 2.05C395.895 2.35 396.612 2.61667 397.245 2.85C397.912 3.08333 398.628 3.2 399.395 3.2C399.762 3.2 400.078 3.18333 400.345 3.15C400.645 3.08333 400.928 3.01666 401.195 2.95L401.345 3.1C401.278 3.4 401.212 3.75 401.145 4.15C401.078 4.55 401.045 4.93333 401.045 5.3C401.045 6.26667 401.112 7.23333 401.245 8.2C401.378 9.13333 401.512 9.91667 401.645 10.55C401.812 11.1833 401.912 11.5333 401.945 11.6H400.395C399.728 9.8 398.812 8.21667 397.645 6.85C396.478 5.48333 395.095 4.41667 393.495 3.65C391.895 2.85 390.095 2.45 388.095 2.45C386.295 2.45 384.662 2.86667 383.195 3.7C381.728 4.53333 380.478 5.68333 379.445 7.15C378.445 8.58333 377.662 10.25 377.095 12.15C376.528 14.05 376.245 16.0667 376.245 18.2C376.245 20.2333 376.462 22.2 376.895 24.1C377.362 26 378.078 27.7 379.045 29.2C380.012 30.6667 381.278 31.8333 382.845 32.7C384.412 33.5333 386.312 33.95 388.545 33.95C389.512 33.95 390.645 33.8 391.945 33.5C393.278 33.1667 394.512 32.5 395.645 31.5V24.2C395.645 23.1333 395.462 22.4333 395.095 22.1C394.762 21.7667 393.995 21.4833 392.795 21.25L390.095 20.7V19.65H406.795V20.7L404.845 21.05C403.645 21.2833 402.862 21.5833 402.495 21.95C402.162 22.3167 401.995 23.0333 401.995 24.1V33.55L401.845 33.7C401.445 33.6 401.095 33.5333 400.795 33.5C400.528 33.4333 400.145 33.4 399.645 33.4C399.045 33.4 398.395 33.5 397.695 33.7C396.995 33.8667 396.228 34.0833 395.395 34.35C394.395 34.6167 393.278 34.8833 392.045 35.15C390.845 35.4167 389.495 35.55 387.995 35.55Z"/>
</mask>
<path d="M4.41367 35V33.95L7.06367 33.4C8.29701 33.1333 9.08034 32.8333 9.41367 32.5C9.74701 32.1667 9.91367 31.4833 9.91367 30.45V5.9C9.91367 4.83333 9.74701 4.13333 9.41367 3.8C9.08034 3.46667 8.29701 3.18333 7.06367 2.95L4.41367 2.4V1.35H33.0137C32.9137 1.81666 32.8303 2.28333 32.7637 2.75C32.7303 3.18333 32.7137 3.63333 32.7137 4.1C32.7137 5.2 32.797 6.25 32.9637 7.25C33.1637 8.25 33.347 9.23333 33.5137 10.2H32.4137C31.8803 8.83333 31.2137 7.6 30.4137 6.5C29.6137 5.4 28.647 4.53333 27.5137 3.9C26.3803 3.23333 25.0303 2.9 23.4637 2.9H16.2637V16.45H23.0637C24.7637 16.45 25.947 16.1333 26.6137 15.5C27.3137 14.8333 27.7637 13.8667 27.9637 12.6L28.3637 10.3H29.4137V24.15H28.3637L27.9137 21.8C27.7137 20.5667 27.2803 19.6333 26.6137 19C25.947 18.3333 24.797 18 23.1637 18H16.2637V29.45C16.2637 30.3833 16.3137 31.15 16.4137 31.75C16.547 32.35 16.8637 32.7833 17.3637 33.05C17.897 33.3167 18.7137 33.45 19.8137 33.45H23.7637C25.0303 33.45 26.147 33.25 27.1137 32.85C28.1137 32.45 29.0137 31.9 29.8137 31.2C30.6137 30.5 31.297 29.7333 31.8637 28.9L33.7637 26H34.8137C34.4803 27.5 34.1803 29.0167 33.9137 30.55C33.6803 32.05 33.5637 33.5333 33.5637 35H4.41367ZM56.9051 35.75L43.7551 4.8C43.5217 4.23333 43.2051 3.81666 42.8051 3.55C42.4384 3.25 41.9217 3.05 41.2551 2.95L38.7051 2.4V1.35H56.1051V2.4L53.6051 2.9C52.7717 3.06667 52.1217 3.28333 51.6551 3.55C51.1884 3.78333 50.9551 4.15 50.9551 4.65C50.9551 4.81666 50.9884 5.03333 51.0551 5.3C51.1551 5.56667 51.2384 5.81666 51.3051 6.05L60.5551 28.95H59.4051L68.7551 5.9C68.8551 5.66666 68.9384 5.46666 69.0051 5.3C69.0717 5.1 69.1051 4.91667 69.1051 4.75C69.1051 4.31667 68.9051 3.98333 68.5051 3.75C68.1384 3.48333 67.5551 3.28333 66.7551 3.15L63.3551 2.4V1.35H76.9551V2.4L74.0551 3C73.3217 3.16666 72.7217 3.4 72.2551 3.7C71.7884 3.96666 71.3884 4.48333 71.0551 5.25L58.7551 35.75H56.9051ZM80.8746 35V33.95L83.5246 33.4C84.7579 33.1333 85.5413 32.8333 85.8746 32.5C86.2079 32.1667 86.3746 31.4833 86.3746 30.45V5.9C86.3746 4.83333 86.2079 4.13333 85.8746 3.8C85.5413 3.46667 84.7579 3.18333 83.5246 2.95L80.8746 2.4V1.35H109.475C109.375 1.81666 109.291 2.28333 109.225 2.75C109.191 3.18333 109.175 3.63333 109.175 4.1C109.175 5.2 109.258 6.25 109.425 7.25C109.625 8.25 109.808 9.23333 109.975 10.2H108.875C108.341 8.83333 107.675 7.6 106.875 6.5C106.075 5.4 105.108 4.53333 103.975 3.9C102.841 3.23333 101.491 2.9 99.9246 2.9H92.7246V16.45H99.5246C101.225 16.45 102.408 16.1333 103.075 15.5C103.775 14.8333 104.225 13.8667 104.425 12.6L104.825 10.3H105.875V24.15H104.825L104.375 21.8C104.175 20.5667 103.741 19.6333 103.075 19C102.408 18.3333 101.258 18 99.6246 18H92.7246V29.45C92.7246 30.3833 92.7746 31.15 92.8746 31.75C93.0079 32.35 93.3246 32.7833 93.8246 33.05C94.3579 33.3167 95.1746 33.45 96.2746 33.45H100.225C101.491 33.45 102.608 33.25 103.575 32.85C104.575 32.45 105.475 31.9 106.275 31.2C107.075 30.5 107.758 29.7333 108.325 28.9L110.225 26H111.275C110.941 27.5 110.641 29.0167 110.375 30.55C110.141 32.05 110.025 33.5333 110.025 35H80.8746ZM150.466 35.7C148.966 35.7 147.583 35.4333 146.316 34.9C145.083 34.3333 143.899 33.4833 142.766 32.35C141.633 31.2167 140.483 29.8333 139.316 28.2C138.449 26.9333 137.566 25.7 136.666 24.5C135.799 23.2667 134.816 22.25 133.716 21.45C132.649 20.6167 131.316 20.2 129.716 20.2H128.416V30.45C128.416 31.4833 128.583 32.1667 128.916 32.5C129.249 32.8333 130.016 33.1333 131.216 33.4L133.916 33.95V35H116.566V33.95L119.216 33.4C120.449 33.1333 121.233 32.8333 121.566 32.5C121.899 32.1667 122.066 31.4833 122.066 30.45V5.9C122.066 4.83333 121.899 4.13333 121.566 3.8C121.233 3.46667 120.449 3.18333 119.216 2.95L116.566 2.4V1.35H130.566C135.433 1.35 139.216 2.16667 141.916 3.8C144.616 5.4 145.966 7.66666 145.966 10.6C145.966 12.1333 145.499 13.5167 144.566 14.75C143.666 15.95 142.449 16.9333 140.916 17.7C139.416 18.4667 137.766 18.95 135.966 19.15V19.25C137.499 19.2833 138.849 19.6833 140.016 20.45C141.183 21.2167 142.233 22.1833 143.166 23.35C144.133 24.5167 145.049 25.75 145.916 27.05C146.783 28.2833 147.649 29.45 148.516 30.55C149.383 31.6167 150.266 32.4833 151.166 33.15C152.099 33.8167 153.049 34.15 154.016 34.15V35.25C152.816 35.55 151.633 35.7 150.466 35.7ZM128.416 18.6H130.566C132.266 18.6 133.783 18.3167 135.116 17.75C136.483 17.1833 137.549 16.35 138.316 15.25C139.083 14.1167 139.466 12.7 139.466 11C139.466 8.33333 138.633 6.31667 136.966 4.95C135.299 3.55 132.949 2.85 129.916 2.85H128.416V18.6ZM157.921 35V33.95L160.571 33.4C161.805 33.1333 162.588 32.8333 162.921 32.5C163.255 32.1667 163.421 31.4833 163.421 30.45V5.9C163.421 4.83333 163.255 4.13333 162.921 3.8C162.588 3.46667 161.805 3.18333 160.571 2.95L157.921 2.4V1.35H175.271V2.4L172.571 2.95C171.371 3.18333 170.605 3.46667 170.271 3.8C169.938 4.13333 169.771 4.83333 169.771 5.9V30.45C169.771 31.4167 170.005 32.1667 170.471 32.7C170.971 33.2 171.921 33.45 173.321 33.45H179.821C181.121 33.45 182.271 33.2667 183.271 32.9C184.305 32.5333 185.205 32 185.971 31.3C186.738 30.6 187.388 29.8 187.921 28.9L189.971 25.4H191.021C190.688 26.8667 190.371 28.4667 190.071 30.2C189.805 31.9333 189.655 33.5333 189.621 35H157.921ZM193.629 35V33.95L196.379 33.35C197.212 33.1833 197.846 32.9333 198.279 32.6C198.746 32.2333 199.112 31.75 199.379 31.15L209.529 6.8L208.129 3.25C209.096 3.21666 209.912 3.01667 210.579 2.65C211.246 2.25 211.746 1.81666 212.079 1.35C212.412 0.849999 212.579 0.433332 212.579 0.0999993H213.179L226.029 31.3C226.329 31.9667 226.696 32.45 227.129 32.75C227.562 33.05 228.212 33.2833 229.079 33.45L231.479 33.95V35H214.279V33.95L216.879 33.45C217.712 33.2833 218.296 33.0833 218.629 32.85C218.996 32.5833 219.179 32.2333 219.179 31.8C219.179 31.6 219.146 31.4 219.079 31.2C219.012 30.9667 218.929 30.7167 218.829 30.45L209.879 7.95H210.979L201.229 31.2C201.162 31.3333 201.112 31.4667 201.079 31.6C201.046 31.7333 201.029 31.85 201.029 31.95C201.029 32.25 201.162 32.5167 201.429 32.75C201.696 32.9833 202.096 33.15 202.629 33.25L206.679 33.95V35H193.629ZM204.329 23.65L204.229 22H218.579V23.65H204.329ZM248.559 35.5C245.759 35.5 243.326 35.15 241.259 34.45C239.226 33.7167 237.626 33.05 236.459 32.45C236.726 30.9833 236.842 29.4667 236.809 27.9C236.809 26.3333 236.609 24.7667 236.209 23.2H237.859C238.059 25.2667 238.592 27.1167 239.459 28.75C240.359 30.3833 241.576 31.6667 243.109 32.6C244.642 33.5333 246.492 34 248.659 34C249.759 34 250.826 33.7833 251.859 33.35C252.926 32.9167 253.809 32.25 254.509 31.35C255.209 30.45 255.559 29.3167 255.559 27.95C255.559 26.7167 255.292 25.7 254.759 24.9C254.259 24.0667 253.342 23.3 252.009 22.6C250.709 21.9 248.859 21.15 246.459 20.35C243.459 19.3167 241.142 18.0833 239.509 16.65C237.909 15.2167 237.109 13.1833 237.109 10.55C237.109 8.81667 237.526 7.21667 238.359 5.75C239.226 4.28333 240.476 3.1 242.109 2.2C243.776 1.26667 245.826 0.799999 248.259 0.799999C249.492 0.799999 250.509 0.933332 251.309 1.2C252.142 1.46666 252.876 1.75 253.509 2.05C254.009 2.28333 254.459 2.5 254.859 2.7C255.292 2.9 255.726 3 256.159 3L257.659 2.7L257.809 2.8C257.776 3.16667 257.742 3.58333 257.709 4.05C257.676 4.48333 257.659 4.9 257.659 5.3C257.659 6.23333 257.709 7.15 257.809 8.05C257.942 8.95 258.076 9.71667 258.209 10.35C258.376 10.9833 258.476 11.4 258.509 11.6H257.259C256.692 9.7 255.976 8.06666 255.109 6.7C254.242 5.33333 253.209 4.26666 252.009 3.5C250.842 2.73333 249.509 2.35 248.009 2.35C246.742 2.35 245.642 2.63333 244.709 3.2C243.809 3.73333 243.092 4.43333 242.559 5.3C242.059 6.16667 241.809 7.11667 241.809 8.15C241.809 9.35 242.026 10.3333 242.459 11.1C242.892 11.8333 243.709 12.5167 244.909 13.15C246.142 13.75 247.926 14.45 250.259 15.25C252.692 16.05 254.609 16.9167 256.009 17.85C257.442 18.7833 258.459 19.85 259.059 21.05C259.659 22.2167 259.959 23.6333 259.959 25.3C259.959 27.3333 259.476 29.1167 258.509 30.65C257.576 32.1833 256.242 33.3833 254.509 34.25C252.809 35.0833 250.826 35.5 248.559 35.5ZM273.514 35V33.95L276.214 33.4C277.414 33.1333 278.181 32.8333 278.514 32.5C278.847 32.1667 279.014 31.4833 279.014 30.45V2.9H275.064C273.597 2.9 272.281 3.26667 271.114 4C269.981 4.7 269.014 5.66666 268.214 6.9C267.447 8.13333 266.881 9.48333 266.514 10.95H265.214C265.447 9.91667 265.631 8.85 265.764 7.75C265.897 6.65 265.981 5.55 266.014 4.45C266.047 3.35 265.981 2.31666 265.814 1.35H298.564C298.397 2.31666 298.331 3.35 298.364 4.45C298.397 5.55 298.481 6.65 298.614 7.75C298.781 8.85 298.964 9.91667 299.164 10.95H297.914C297.514 9.48333 296.931 8.13333 296.164 6.9C295.397 5.66666 294.431 4.7 293.264 4C292.131 3.26667 290.814 2.9 289.314 2.9H285.364V30.45C285.364 31.4833 285.531 32.1667 285.864 32.5C286.231 32.8333 287.014 33.1333 288.214 33.4L290.864 33.95V35H273.514ZM303.373 35V33.95L306.073 33.4C307.273 33.1333 308.039 32.8333 308.373 32.5C308.706 32.1667 308.873 31.4833 308.873 30.45V5.9C308.873 4.83333 308.706 4.13333 308.373 3.8C308.039 3.46667 307.273 3.18333 306.073 2.95L303.373 2.4V1.35H320.723V2.4L318.023 2.95C316.823 3.18333 316.056 3.46667 315.723 3.8C315.389 4.13333 315.223 4.83333 315.223 5.9V30.45C315.223 31.4833 315.389 32.1667 315.723 32.5C316.056 32.8333 316.823 33.1333 318.023 33.4L320.723 33.95V35H303.373ZM358.827 35.85L333.527 7.55V30.35C333.527 31.25 333.744 31.9167 334.177 32.35C334.61 32.75 335.327 33.05 336.327 33.25L339.827 33.95V35H326.027V33.95L328.977 33.35C330.01 33.1167 330.744 32.8 331.177 32.4C331.61 32 331.827 31.3333 331.827 30.4V6C331.827 5.26666 331.76 4.71666 331.627 4.35C331.494 3.95 331.21 3.66667 330.777 3.5C330.344 3.3 329.677 3.1 328.777 2.9L326.277 2.4V1.35H336.327L357.927 25.25L357.877 6C357.877 5.1 357.66 4.43333 357.227 4C356.827 3.56667 356.11 3.26667 355.077 3.1L351.577 2.4V1.35H365.377V2.4L362.427 3C361.394 3.23333 360.66 3.55 360.227 3.95C359.827 4.35 359.627 5.01667 359.627 5.95V35.85H358.827ZM387.995 35.55C385.528 35.55 383.178 35.15 380.945 34.35C378.745 33.55 376.762 32.4 374.995 30.9C373.228 29.4 371.845 27.5833 370.845 25.45C369.845 23.3167 369.345 20.9 369.345 18.2C369.345 15.6667 369.828 13.35 370.795 11.25C371.795 9.15 373.145 7.31666 374.845 5.75C376.545 4.18333 378.512 2.98333 380.745 2.15C382.978 1.31667 385.362 0.899998 387.895 0.899998C389.595 0.899998 391.012 1.01667 392.145 1.25C393.312 1.45 394.295 1.71667 395.095 2.05C395.895 2.35 396.612 2.61667 397.245 2.85C397.912 3.08333 398.628 3.2 399.395 3.2C399.762 3.2 400.078 3.18333 400.345 3.15C400.645 3.08333 400.928 3.01666 401.195 2.95L401.345 3.1C401.278 3.4 401.212 3.75 401.145 4.15C401.078 4.55 401.045 4.93333 401.045 5.3C401.045 6.26667 401.112 7.23333 401.245 8.2C401.378 9.13333 401.512 9.91667 401.645 10.55C401.812 11.1833 401.912 11.5333 401.945 11.6H400.395C399.728 9.8 398.812 8.21667 397.645 6.85C396.478 5.48333 395.095 4.41667 393.495 3.65C391.895 2.85 390.095 2.45 388.095 2.45C386.295 2.45 384.662 2.86667 383.195 3.7C381.728 4.53333 380.478 5.68333 379.445 7.15C378.445 8.58333 377.662 10.25 377.095 12.15C376.528 14.05 376.245 16.0667 376.245 18.2C376.245 20.2333 376.462 22.2 376.895 24.1C377.362 26 378.078 27.7 379.045 29.2C380.012 30.6667 381.278 31.8333 382.845 32.7C384.412 33.5333 386.312 33.95 388.545 33.95C389.512 33.95 390.645 33.8 391.945 33.5C393.278 33.1667 394.512 32.5 395.645 31.5V24.2C395.645 23.1333 395.462 22.4333 395.095 22.1C394.762 21.7667 393.995 21.4833 392.795 21.25L390.095 20.7V19.65H406.795V20.7L404.845 21.05C403.645 21.2833 402.862 21.5833 402.495 21.95C402.162 22.3167 401.995 23.0333 401.995 24.1V33.55L401.845 33.7C401.445 33.6 401.095 33.5333 400.795 33.5C400.528 33.4333 400.145 33.4 399.645 33.4C399.045 33.4 398.395 33.5 397.695 33.7C396.995 33.8667 396.228 34.0833 395.395 34.35C394.395 34.6167 393.278 34.8833 392.045 35.15C390.845 35.4167 389.495 35.55 387.995 35.55Z" fill="white"/>
<path d="M4.41367 35H3.41367V36H4.41367V35ZM4.41367 33.95L4.21046 32.9709L3.41367 33.1362V33.95H4.41367ZM7.06367 33.4L7.2669 34.3792L7.275 34.3774L7.06367 33.4ZM9.41367 32.5L8.70657 31.7929L8.70657 31.7929L9.41367 32.5ZM9.41367 3.8L8.70657 4.50711L8.70657 4.50711L9.41367 3.8ZM7.06367 2.95L6.86046 3.92913L6.8691 3.93093L6.87778 3.93257L7.06367 2.95ZM4.41367 2.4H3.41367V3.21376L4.21046 3.37913L4.41367 2.4ZM4.41367 1.35V0.349998H3.41367V1.35H4.41367ZM33.0137 1.35L33.9915 1.55952L34.2507 0.349998H33.0137V1.35ZM32.7637 2.75L31.7737 2.60857L31.7691 2.64082L31.7666 2.6733L32.7637 2.75ZM32.9637 7.25L31.9773 7.4144L31.9799 7.4303L31.9831 7.44612L32.9637 7.25ZM33.5137 10.2V11.2H34.7008L34.4991 10.0301L33.5137 10.2ZM32.4137 10.2L31.4821 10.5635L31.7305 11.2H32.4137V10.2ZM30.4137 6.5L31.2224 5.91183L31.2224 5.91183L30.4137 6.5ZM27.5137 3.9L27.0067 4.76193L27.0162 4.76754L27.0259 4.77294L27.5137 3.9ZM16.2637 2.9V1.9H15.2637V2.9H16.2637ZM16.2637 16.45H15.2637V17.45H16.2637V16.45ZM26.6137 15.5L27.3024 16.225L27.3033 16.2241L26.6137 15.5ZM27.9637 12.6L26.9785 12.4287L26.9771 12.4363L26.9759 12.444L27.9637 12.6ZM28.3637 10.3V9.3H27.5226L27.3785 10.1287L28.3637 10.3ZM29.4137 10.3H30.4137V9.3H29.4137V10.3ZM29.4137 24.15V25.15H30.4137V24.15H29.4137ZM28.3637 24.15L27.3815 24.3381L27.537 25.15H28.3637V24.15ZM27.9137 21.8L26.9266 21.9601L26.9288 21.9741L26.9315 21.9881L27.9137 21.8ZM26.6137 19L25.9066 19.7071L25.9156 19.7162L25.9249 19.725L26.6137 19ZM16.2637 18V17H15.2637V18H16.2637ZM16.4137 31.75L15.4273 31.9144L15.4317 31.9408L15.4375 31.9669L16.4137 31.75ZM17.3637 33.05L16.8931 33.9324L16.9047 33.9385L16.9165 33.9444L17.3637 33.05ZM27.1137 32.85L26.7423 31.9215L26.7313 31.926L27.1137 32.85ZM29.8137 31.2L29.1552 30.4474L29.1552 30.4474L29.8137 31.2ZM31.8637 28.9L32.6906 29.4623L32.6954 29.4552L32.7001 29.448L31.8637 28.9ZM33.7637 26V25H33.2233L32.9272 25.452L33.7637 26ZM34.8137 26L35.7899 26.2169L36.0603 25H34.8137V26ZM33.9137 30.55L32.9285 30.3787L32.9269 30.3875L32.9256 30.3963L33.9137 30.55ZM33.5637 35V36H34.5637V35H33.5637ZM5.41367 35V33.95H3.41367V35H5.41367ZM4.61689 34.9291L7.26689 34.3791L6.86046 32.4209L4.21046 32.9709L4.61689 34.9291ZM7.275 34.3774C7.91931 34.2381 8.47725 34.0837 8.93382 33.9089C9.37008 33.7418 9.80542 33.5225 10.1208 33.2071L8.70657 31.7929C8.70712 31.7923 8.6992 31.8003 8.67851 31.8154C8.65797 31.8303 8.62789 31.8501 8.58596 31.8739C8.5008 31.9222 8.38091 31.979 8.21852 32.0411C7.89176 32.1663 7.44137 32.2952 6.85234 32.4226L7.275 34.3774ZM10.1208 33.2071C10.4657 32.8622 10.6534 32.4125 10.7602 31.9745C10.869 31.5283 10.9137 31.0129 10.9137 30.45H8.91367C8.91367 30.9204 8.87499 31.2634 8.81715 31.5005C8.75732 31.7458 8.69496 31.8045 8.70657 31.7929L10.1208 33.2071ZM10.9137 30.45V5.9H8.91367V30.45H10.9137ZM10.9137 5.9C10.9137 5.32226 10.8693 4.79615 10.7615 4.34338C10.6561 3.90098 10.47 3.4421 10.1208 3.09289L8.70657 4.50711C8.69069 4.49123 8.75453 4.54902 8.81587 4.80662C8.87473 5.05384 8.91367 5.41107 8.91367 5.9H10.9137ZM10.1208 3.09289C9.79909 2.77121 9.3558 2.55609 8.91631 2.39712C8.4561 2.23066 7.89522 2.08958 7.24956 1.96743L6.87778 3.93257C7.46545 4.04375 7.91291 4.161 8.23604 4.27788C8.39652 4.33592 8.51372 4.38939 8.59587 4.43476C8.68024 4.48135 8.70821 4.50875 8.70657 4.50711L10.1208 3.09289ZM7.26689 1.97086L4.61689 1.42087L4.21046 3.37913L6.86046 3.92913L7.26689 1.97086ZM5.41367 2.4V1.35H3.41367V2.4H5.41367ZM4.41367 2.35H33.0137V0.349998H4.41367V2.35ZM32.0359 1.14047C31.9311 1.62941 31.8437 2.11879 31.7737 2.60857L33.7536 2.89142C33.817 2.44787 33.8963 2.00392 33.9915 1.55952L32.0359 1.14047ZM31.7666 2.6733C31.7312 3.13394 31.7137 3.60959 31.7137 4.1H33.7137C33.7137 3.65707 33.7295 3.23272 33.7607 2.82669L31.7666 2.6733ZM31.7137 4.1C31.7137 5.25047 31.8008 6.3557 31.9773 7.4144L33.9501 7.0856C33.7932 6.14429 33.7137 5.14953 33.7137 4.1H31.7137ZM31.9831 7.44612C32.1814 8.43774 32.3631 9.41233 32.5282 10.3699L34.4991 10.0301C34.3309 9.05433 34.1459 8.06226 33.9443 7.05388L31.9831 7.44612ZM33.5137 9.2H32.4137V11.2H33.5137V9.2ZM33.3453 9.83646C32.7832 8.39619 32.0766 7.08634 31.2224 5.91183L29.6049 7.08817C30.3507 8.11366 30.9775 9.27048 31.4821 10.5635L33.3453 9.83646ZM31.2224 5.91183C30.3415 4.70051 29.2672 3.73434 28.0015 3.02705L27.0259 4.77294C28.0269 5.33232 28.8859 6.09949 29.6049 7.08817L31.2224 5.91183ZM28.0207 3.03806C26.7066 2.26506 25.1743 1.9 23.4637 1.9V3.9C24.8864 3.9 26.0541 4.2016 27.0067 4.76193L28.0207 3.03806ZM23.4637 1.9H16.2637V3.9H23.4637V1.9ZM15.2637 2.9V16.45H17.2637V2.9H15.2637ZM16.2637 17.45H23.0637V15.45H16.2637V17.45ZM23.0637 17.45C24.8253 17.45 26.3452 17.1344 27.3024 16.225L25.9249 14.775C25.5488 15.1323 24.7021 15.45 23.0637 15.45V17.45ZM27.3033 16.2241C28.2074 15.3631 28.7283 14.169 28.9514 12.756L26.9759 12.444C26.799 13.5644 26.4199 14.3036 25.924 14.7759L27.3033 16.2241ZM28.9489 12.7713L29.3489 10.4713L27.3785 10.1287L26.9785 12.4287L28.9489 12.7713ZM28.3637 11.3H29.4137V9.3H28.3637V11.3ZM28.4137 10.3V24.15H30.4137V10.3H28.4137ZM29.4137 23.15H28.3637V25.15H29.4137V23.15ZM29.3458 23.9619L28.8958 21.6119L26.9315 21.9881L27.3815 24.3381L29.3458 23.9619ZM28.9008 21.6399C28.6782 20.2673 28.1759 19.1048 27.3024 18.275L25.9249 19.725C26.3848 20.1619 26.7492 20.8661 26.9266 21.9601L28.9008 21.6399ZM27.3208 18.2929C26.369 17.3411 24.8817 17 23.1637 17V19C24.7123 19 25.525 19.3255 25.9066 19.7071L27.3208 18.2929ZM23.1637 17H16.2637V19H23.1637V17ZM15.2637 18V29.45H17.2637V18H15.2637ZM15.2637 29.45C15.2637 30.4126 15.3148 31.2395 15.4273 31.9144L17.4001 31.5856C17.3126 31.0605 17.2637 30.3541 17.2637 29.45H15.2637ZM15.4375 31.9669C15.6281 32.8246 16.1118 33.5157 16.8931 33.9324L17.8343 32.1676C17.6155 32.051 17.4659 31.8754 17.3899 31.5331L15.4375 31.9669ZM16.9165 33.9444C17.6616 34.317 18.6684 34.45 19.8137 34.45V32.45C18.7589 32.45 18.1324 32.3163 17.8109 32.1556L16.9165 33.9444ZM19.8137 34.45H23.7637V32.45H19.8137V34.45ZM23.7637 34.45C25.1346 34.45 26.3855 34.2336 27.496 33.774L26.7313 31.926C25.9085 32.2664 24.9261 32.45 23.7637 32.45V34.45ZM27.4851 33.7785C28.5886 33.3371 29.586 32.728 30.4722 31.9526L29.1552 30.4474C28.4414 31.072 27.6387 31.5629 26.7423 31.9215L27.4851 33.7785ZM30.4722 31.9526C31.3327 31.1996 32.0736 30.3697 32.6906 29.4623L31.0367 28.3377C30.5205 29.0969 29.8947 29.8004 29.1552 30.4474L30.4722 31.9526ZM32.7001 29.448L34.6001 26.548L32.9272 25.452L31.0272 28.352L32.7001 29.448ZM33.7637 27H34.8137V25H33.7637V27ZM33.8375 25.7831C33.5007 27.2984 33.1977 28.8303 32.9285 30.3787L34.8989 30.7213C35.1629 29.2031 35.4599 27.7016 35.7899 26.2169L33.8375 25.7831ZM32.9256 30.3963C32.6846 31.9454 32.5637 33.4801 32.5637 35H34.5637C34.5637 33.5866 34.6761 32.1546 34.9018 30.7037L32.9256 30.3963ZM33.5637 34H4.41367V36H33.5637V34ZM56.9051 35.75L55.9847 36.141L56.2434 36.75H56.9051V35.75ZM43.7551 4.8L42.8303 5.18077L42.8347 5.19104L43.7551 4.8ZM42.8051 3.55L42.1718 4.32396L42.2097 4.35492L42.2504 4.38205L42.8051 3.55ZM41.2551 2.95L41.0442 3.92752L41.0753 3.93422L41.1067 3.93893L41.2551 2.95ZM38.7051 2.4H37.7051V3.20731L38.4942 3.37752L38.7051 2.4ZM38.7051 1.35V0.349998H37.7051V1.35H38.7051ZM56.1051 1.35H57.1051V0.349998H56.1051V1.35ZM56.1051 2.4L56.3012 3.38058L57.1051 3.2198V2.4H56.1051ZM53.6051 2.9L53.409 1.91942L53.409 1.91942L53.6051 2.9ZM51.6551 3.55L52.1023 4.44443L52.1271 4.43201L52.1512 4.41824L51.6551 3.55ZM51.0551 5.3L50.0849 5.54253L50.0988 5.59779L50.1187 5.65112L51.0551 5.3ZM51.3051 6.05L50.3436 6.32472L50.3581 6.37553L50.3779 6.42453L51.3051 6.05ZM60.5551 28.95V29.95H62.0375L61.4823 28.5755L60.5551 28.95ZM59.4051 28.95L58.4784 28.5741L57.9203 29.95H59.4051V28.95ZM68.7551 5.9L67.8359 5.50608L67.8321 5.51506L67.8284 5.52411L68.7551 5.9ZM69.0051 5.3L69.9336 5.67138L69.9445 5.6441L69.9538 5.61623L69.0051 5.3ZM68.5051 3.75L67.9169 4.55873L67.9577 4.58838L68.0012 4.61378L68.5051 3.75ZM66.7551 3.15L66.5397 4.12652L66.565 4.13212L66.5907 4.13639L66.7551 3.15ZM63.3551 2.4H62.3551V3.20345L63.1397 3.37652L63.3551 2.4ZM63.3551 1.35V0.349998H62.3551V1.35H63.3551ZM76.9551 1.35H77.9551V0.349998H76.9551V1.35ZM76.9551 2.4L77.1577 3.37926L77.9551 3.21428V2.4H76.9551ZM74.0551 3L73.8525 2.02074L73.8429 2.02271L73.8335 2.02486L74.0551 3ZM72.2551 3.7L72.7512 4.56824L72.7739 4.55529L72.7958 4.54118L72.2551 3.7ZM71.0551 5.25L70.138 4.85127L70.1327 4.86356L70.1277 4.87599L71.0551 5.25ZM58.7551 35.75V36.75H59.4301L59.6825 36.124L58.7551 35.75ZM57.8255 35.359L44.6754 4.40895L42.8347 5.19104L55.9847 36.141L57.8255 35.359ZM44.6798 4.41925C44.3914 3.71904 43.9654 3.12167 43.3598 2.71795L42.2504 4.38205C42.4448 4.51166 42.6521 4.74762 42.8304 5.18075L44.6798 4.41925ZM43.4383 2.77604C42.8855 2.32371 42.1768 2.07707 41.4034 1.96106L41.1067 3.93893C41.6667 4.02293 41.9914 4.17629 42.1718 4.32396L43.4383 2.77604ZM41.4659 1.97248L38.9159 1.42248L38.4942 3.37752L41.0442 3.92752L41.4659 1.97248ZM39.7051 2.4V1.35H37.7051V2.4H39.7051ZM38.7051 2.35H56.1051V0.349998H38.7051V2.35ZM55.1051 1.35V2.4H57.1051V1.35H55.1051ZM55.909 1.41942L53.409 1.91942L53.8012 3.88058L56.3012 3.38058L55.909 1.41942ZM53.409 1.91942C52.524 2.0964 51.7569 2.34005 51.1589 2.68176L52.1512 4.41824C52.4866 4.22662 53.0195 4.03693 53.8012 3.88058L53.409 1.91942ZM51.2079 2.65557C50.8451 2.83697 50.5183 3.09877 50.2864 3.46312C50.053 3.82994 49.9551 4.23909 49.9551 4.65H51.9551C51.9551 4.60292 51.9605 4.57451 51.9644 4.55997C51.9681 4.54637 51.9716 4.54019 51.9737 4.53687C51.9752 4.53456 51.9984 4.49636 52.1023 4.44443L51.2079 2.65557ZM49.9551 4.65C49.9551 4.93397 50.0095 5.24066 50.0849 5.54253L52.0252 5.05746C51.9674 4.826 51.9551 4.69935 51.9551 4.65H49.9551ZM50.1187 5.65112C50.2109 5.89685 50.2854 6.12114 50.3436 6.32472L52.2666 5.77528C52.1914 5.51219 52.0993 5.23648 51.9914 4.94887L50.1187 5.65112ZM50.3779 6.42453L59.6279 29.3245L61.4823 28.5755L52.2323 5.67547L50.3779 6.42453ZM60.5551 27.95H59.4051V29.95H60.5551V27.95ZM60.3317 29.3259L69.6817 6.27589L67.8284 5.52411L58.4784 28.5741L60.3317 29.3259ZM69.6742 6.29392C69.7762 6.0559 69.8629 5.84797 69.9336 5.67138L68.0766 4.92861C68.0139 5.08536 67.9339 5.27743 67.8359 5.50608L69.6742 6.29392ZM69.9538 5.61623C70.0458 5.34 70.1051 5.04828 70.1051 4.75H68.1051C68.1051 4.78505 68.0977 4.85999 68.0564 4.98376L69.9538 5.61623ZM70.1051 4.75C70.1051 3.93218 69.6904 3.28375 69.0089 2.88622L68.0012 4.61378C68.0432 4.63825 68.0677 4.65827 68.081 4.67076C68.0936 4.68275 68.0974 4.68914 68.0976 4.6895C68.0976 4.6896 68.0985 4.69071 68.1 4.69617C68.1016 4.70228 68.1051 4.71894 68.1051 4.75H70.1051ZM69.0933 2.94127C68.5376 2.53718 67.7699 2.30534 66.9195 2.1636L66.5907 4.13639C67.3403 4.26133 67.7392 4.42948 67.9169 4.55873L69.0933 2.94127ZM66.9705 2.17347L63.5705 1.42348L63.1397 3.37652L66.5397 4.12652L66.9705 2.17347ZM64.3551 2.4V1.35H62.3551V2.4H64.3551ZM63.3551 2.35H76.9551V0.349998H63.3551V2.35ZM75.9551 1.35V2.4H77.9551V1.35H75.9551ZM76.7525 1.42074L73.8525 2.02074L74.2577 3.97926L77.1577 3.37926L76.7525 1.42074ZM73.8335 2.02486C73.0244 2.20874 72.3067 2.47801 71.7143 2.85882L72.7958 4.54118C73.1368 4.32198 73.6191 4.12459 74.2767 3.97513L73.8335 2.02486ZM71.7589 2.83175C71.0267 3.25019 70.5126 3.98967 70.138 4.85127L71.9721 5.64873C72.2642 4.977 72.5501 4.68314 72.7512 4.56824L71.7589 2.83175ZM70.1277 4.87599L57.8277 35.376L59.6825 36.124L71.9825 5.62401L70.1277 4.87599ZM58.7551 34.75H56.9051V36.75H58.7551V34.75ZM80.8746 35H79.8746V36H80.8746V35ZM80.8746 33.95L80.6714 32.9709L79.8746 33.1362V33.95H80.8746ZM83.5246 33.4L83.7278 34.3792L83.7359 34.3774L83.5246 33.4ZM85.8746 32.5L85.1675 31.7929L85.1675 31.7929L85.8746 32.5ZM85.8746 3.8L85.1675 4.50711L85.1675 4.50711L85.8746 3.8ZM83.5246 2.95L83.3214 3.92913L83.33 3.93093L83.3387 3.93257L83.5246 2.95ZM80.8746 2.4H79.8746V3.21376L80.6714 3.37913L80.8746 2.4ZM80.8746 1.35V0.349998H79.8746V1.35H80.8746ZM109.475 1.35L110.452 1.55952L110.712 0.349998H109.475V1.35ZM109.225 2.75L108.235 2.60857L108.23 2.64082L108.228 2.6733L109.225 2.75ZM109.425 7.25L108.438 7.4144L108.441 7.4303L108.444 7.44612L109.425 7.25ZM109.975 10.2V11.2H111.162L110.96 10.0301L109.975 10.2ZM108.875 10.2L107.943 10.5635L108.191 11.2H108.875V10.2ZM106.875 6.5L107.683 5.91183L107.683 5.91183L106.875 6.5ZM103.975 3.9L103.468 4.76193L103.477 4.76754L103.487 4.77294L103.975 3.9ZM92.7246 2.9V1.9H91.7246V2.9H92.7246ZM92.7246 16.45H91.7246V17.45H92.7246V16.45ZM103.075 15.5L103.763 16.225L103.764 16.2241L103.075 15.5ZM104.425 12.6L103.439 12.4287L103.438 12.4363L103.437 12.444L104.425 12.6ZM104.825 10.3V9.3H103.984L103.839 10.1287L104.825 10.3ZM105.875 10.3H106.875V9.3H105.875V10.3ZM105.875 24.15V25.15H106.875V24.15H105.875ZM104.825 24.15L103.842 24.3381L103.998 25.15H104.825V24.15ZM104.375 21.8L103.388 21.9601L103.39 21.9741L103.392 21.9881L104.375 21.8ZM103.075 19L102.368 19.7071L102.377 19.7162L102.386 19.725L103.075 19ZM92.7246 18V17H91.7246V18H92.7246ZM92.8746 31.75L91.8882 31.9144L91.8926 31.9408L91.8984 31.9669L92.8746 31.75ZM93.8246 33.05L93.354 33.9324L93.3656 33.9385L93.3774 33.9444L93.8246 33.05ZM103.575 32.85L103.203 31.9215L103.192 31.926L103.575 32.85ZM106.275 31.2L105.616 30.4474L105.616 30.4474L106.275 31.2ZM108.325 28.9L109.152 29.4623L109.156 29.4552L109.161 29.448L108.325 28.9ZM110.225 26V25H109.684L109.388 25.452L110.225 26ZM111.275 26L112.251 26.2169L112.521 25H111.275V26ZM110.375 30.55L109.389 30.3787L109.388 30.3875L109.386 30.3963L110.375 30.55ZM110.025 35V36H111.025V35H110.025ZM81.8746 35V33.95H79.8746V35H81.8746ZM81.0778 34.9291L83.7278 34.3791L83.3214 32.4209L80.6714 32.9709L81.0778 34.9291ZM83.7359 34.3774C84.3802 34.2381 84.9382 34.0837 85.3948 33.9089C85.831 33.7418 86.2664 33.5225 86.5817 33.2071L85.1675 31.7929C85.1681 31.7923 85.1601 31.8003 85.1394 31.8154C85.1189 31.8303 85.0888 31.8501 85.0469 31.8739C84.9617 31.9222 84.8418 31.979 84.6795 32.0411C84.3527 32.1663 83.9023 32.2952 83.3133 32.4226L83.7359 34.3774ZM86.5817 33.2071C86.9267 32.8622 87.1143 32.4125 87.2211 31.9745C87.33 31.5283 87.3746 31.0129 87.3746 30.45H85.3746C85.3746 30.9204 85.3359 31.2634 85.2781 31.5005C85.2183 31.7458 85.1559 31.8045 85.1675 31.7929L86.5817 33.2071ZM87.3746 30.45V5.9H85.3746V30.45H87.3746ZM87.3746 5.9C87.3746 5.32226 87.3302 4.79615 87.2224 4.34338C87.1171 3.90098 86.9309 3.4421 86.5817 3.09289L85.1675 4.50711C85.1516 4.49123 85.2155 4.54902 85.2768 4.80662C85.3357 5.05384 85.3746 5.41107 85.3746 5.9H87.3746ZM86.5817 3.09289C86.26 2.77121 85.8167 2.55609 85.3772 2.39712C84.917 2.23066 84.3562 2.08958 83.7105 1.96743L83.3387 3.93257C83.9264 4.04375 84.3738 4.161 84.697 4.27788C84.8575 4.33592 84.9747 4.38939 85.0568 4.43476C85.1412 4.48135 85.1691 4.50875 85.1675 4.50711L86.5817 3.09289ZM83.7278 1.97086L81.0778 1.42087L80.6714 3.37913L83.3214 3.92913L83.7278 1.97086ZM81.8746 2.4V1.35H79.8746V2.4H81.8746ZM80.8746 2.35H109.475V0.349998H80.8746V2.35ZM108.497 1.14047C108.392 1.62941 108.305 2.11879 108.235 2.60857L110.215 2.89142C110.278 2.44787 110.357 2.00392 110.452 1.55952L108.497 1.14047ZM108.228 2.6733C108.192 3.13394 108.175 3.60959 108.175 4.1H110.175C110.175 3.65707 110.19 3.23272 110.222 2.82669L108.228 2.6733ZM108.175 4.1C108.175 5.25047 108.262 6.3557 108.438 7.4144L110.411 7.0856C110.254 6.14429 110.175 5.14953 110.175 4.1H108.175ZM108.444 7.44612C108.642 8.43774 108.824 9.41233 108.989 10.3699L110.96 10.0301C110.792 9.05433 110.607 8.06226 110.405 7.05388L108.444 7.44612ZM109.975 9.2H108.875V11.2H109.975V9.2ZM109.806 9.83646C109.244 8.39619 108.538 7.08634 107.683 5.91183L106.066 7.08817C106.812 8.11366 107.438 9.27048 107.943 10.5635L109.806 9.83646ZM107.683 5.91183C106.802 4.70051 105.728 3.73434 104.462 3.02705L103.487 4.77294C104.488 5.33232 105.347 6.09949 106.066 7.08817L107.683 5.91183ZM104.482 3.03806C103.168 2.26506 101.635 1.9 99.9246 1.9V3.9C101.347 3.9 102.515 4.2016 103.468 4.76193L104.482 3.03806ZM99.9246 1.9H92.7246V3.9H99.9246V1.9ZM91.7246 2.9V16.45H93.7246V2.9H91.7246ZM92.7246 17.45H99.5246V15.45H92.7246V17.45ZM99.5246 17.45C101.286 17.45 102.806 17.1344 103.763 16.225L102.386 14.775C102.01 15.1323 101.163 15.45 99.5246 15.45V17.45ZM103.764 16.2241C104.668 15.3631 105.189 14.169 105.412 12.756L103.437 12.444C103.26 13.5644 102.881 14.3036 102.385 14.7759L103.764 16.2241ZM105.41 12.7713L105.81 10.4713L103.839 10.1287L103.439 12.4287L105.41 12.7713ZM104.825 11.3H105.875V9.3H104.825V11.3ZM104.875 10.3V24.15H106.875V10.3H104.875ZM105.875 23.15H104.825V25.15H105.875V23.15ZM105.807 23.9619L105.357 21.6119L103.392 21.9881L103.842 24.3381L105.807 23.9619ZM105.362 21.6399C105.139 20.2673 104.637 19.1048 103.763 18.275L102.386 19.725C102.846 20.1619 103.21 20.8661 103.388 21.9601L105.362 21.6399ZM103.782 18.2929C102.83 17.3411 101.343 17 99.6246 17V19C101.173 19 101.986 19.3255 102.368 19.7071L103.782 18.2929ZM99.6246 17H92.7246V19H99.6246V17ZM91.7246 18V29.45H93.7246V18H91.7246ZM91.7246 29.45C91.7246 30.4126 91.7757 31.2395 91.8882 31.9144L93.861 31.5856C93.7735 31.0605 93.7246 30.3541 93.7246 29.45H91.7246ZM91.8984 31.9669C92.089 32.8246 92.5728 33.5157 93.354 33.9324L94.2952 32.1676C94.0765 32.051 93.9269 31.8754 93.8508 31.5331L91.8984 31.9669ZM93.3774 33.9444C94.1226 34.317 95.1294 34.45 96.2746 34.45V32.45C95.2198 32.45 94.5933 32.3163 94.2718 32.1556L93.3774 33.9444ZM96.2746 34.45H100.225V32.45H96.2746V34.45ZM100.225 34.45C101.595 34.45 102.846 34.2336 103.957 33.774L103.192 31.926C102.369 32.2664 101.387 32.45 100.225 32.45V34.45ZM103.946 33.7785C105.05 33.3371 106.047 32.728 106.933 31.9526L105.616 30.4474C104.902 31.072 104.1 31.5629 103.203 31.9215L103.946 33.7785ZM106.933 31.9526C107.794 31.1996 108.534 30.3697 109.152 29.4623L107.498 28.3377C106.981 29.0969 106.356 29.8004 105.616 30.4474L106.933 31.9526ZM109.161 29.448L111.061 26.548L109.388 25.452L107.488 28.352L109.161 29.448ZM110.225 27H111.275V25H110.225V27ZM110.298 25.7831C109.962 27.2984 109.659 28.8303 109.389 30.3787L111.36 30.7213C111.624 29.2031 111.921 27.7016 112.251 26.2169L110.298 25.7831ZM109.386 30.3963C109.146 31.9454 109.025 33.4801 109.025 35H111.025C111.025 33.5866 111.137 32.1546 111.363 30.7037L109.386 30.3963ZM110.025 34H80.8746V36H110.025V34ZM146.316 34.9L145.899 35.8087L145.913 35.8154L145.928 35.8216L146.316 34.9ZM142.766 32.35L143.473 31.6429L143.473 31.6429L142.766 32.35ZM139.316 28.2L138.491 28.7647L138.496 28.773L138.502 28.7812L139.316 28.2ZM136.666 24.5L135.848 25.0749L135.857 25.0876L135.866 25.1L136.666 24.5ZM133.716 21.45L133.1 22.238L133.114 22.2486L133.128 22.2587L133.716 21.45ZM128.416 20.2V19.2H127.416V20.2H128.416ZM128.916 32.5L128.209 33.2071L128.209 33.2071L128.916 32.5ZM131.216 33.4L130.999 34.3762L131.008 34.3781L131.016 34.3799L131.216 33.4ZM133.916 33.95H134.916V33.1332L134.116 32.9701L133.916 33.95ZM133.916 35V36H134.916V35H133.916ZM116.566 35H115.566V36H116.566V35ZM116.566 33.95L116.363 32.9709L115.566 33.1362V33.95H116.566ZM119.216 33.4L119.419 34.3792L119.427 34.3774L119.216 33.4ZM121.566 32.5L120.859 31.7929L120.859 31.7929L121.566 32.5ZM121.566 3.8L120.859 4.50711L120.859 4.50711L121.566 3.8ZM119.216 2.95L119.013 3.92913L119.021 3.93093L119.03 3.93257L119.216 2.95ZM116.566 2.4H115.566V3.21376L116.363 3.37913L116.566 2.4ZM116.566 1.35V0.349998H115.566V1.35H116.566ZM141.916 3.8L141.398 4.65566L141.406 4.66029L141.916 3.8ZM144.566 14.75L143.769 14.1466L143.766 14.15L144.566 14.75ZM140.916 17.7L140.469 16.8055L140.461 16.8096L140.916 17.7ZM135.966 19.15L135.856 18.1561L134.966 18.255V19.15H135.966ZM135.966 19.25H134.966V20.2285L135.944 20.2498L135.966 19.25ZM140.016 20.45L140.565 19.6143L140.565 19.6143L140.016 20.45ZM143.166 23.35L142.385 23.9747L142.391 23.9814L142.396 23.988L143.166 23.35ZM145.916 27.05L145.084 27.6047L145.091 27.6149L145.098 27.6249L145.916 27.05ZM148.516 30.55L147.731 31.1689L147.735 31.1748L147.74 31.1806L148.516 30.55ZM151.166 33.15L150.571 33.9536L150.578 33.9587L150.585 33.9637L151.166 33.15ZM154.016 34.15H155.016V33.15H154.016V34.15ZM154.016 35.25L154.259 36.2201L155.016 36.0308V35.25H154.016ZM128.416 18.6H127.416V19.6H128.416V18.6ZM135.116 17.75L134.733 16.8262L134.725 16.8297L135.116 17.75ZM138.316 15.25L139.136 15.8218L139.144 15.8103L138.316 15.25ZM136.966 4.95L136.323 5.71576L136.332 5.72327L136.966 4.95ZM128.416 2.85V1.85H127.416V2.85H128.416ZM150.466 34.7C149.087 34.7 147.837 34.4554 146.704 33.9784L145.928 35.8216C147.328 36.4112 148.845 36.7 150.466 36.7V34.7ZM146.734 33.9913C145.625 33.4822 144.537 32.7072 143.473 31.6429L142.059 33.0571C143.261 34.2594 144.54 35.1845 145.899 35.8087L146.734 33.9913ZM143.473 31.6429C142.387 30.5568 141.272 29.2179 140.13 27.6188L138.502 28.7812C139.693 30.4487 140.878 31.8765 142.059 33.0571L143.473 31.6429ZM140.141 27.6353C139.267 26.357 138.375 25.1119 137.466 23.9L135.866 25.1C136.757 26.2881 137.632 27.5097 138.491 28.7647L140.141 27.6353ZM137.484 23.9251C136.561 22.6113 135.502 21.5126 134.304 20.6413L133.128 22.2587C134.13 22.9874 135.038 23.922 135.848 25.0749L137.484 23.9251ZM134.332 20.662C133.059 19.6674 131.497 19.2 129.716 19.2V21.2C131.135 21.2 132.24 21.5659 133.1 22.238L134.332 20.662ZM129.716 19.2H128.416V21.2H129.716V19.2ZM127.416 20.2V30.45H129.416V20.2H127.416ZM127.416 30.45C127.416 31.0129 127.461 31.5283 127.569 31.9745C127.676 32.4125 127.864 32.8622 128.209 33.2071L129.623 31.7929C129.635 31.8045 129.572 31.7458 129.513 31.5005C129.455 31.2634 129.416 30.9204 129.416 30.45H127.416ZM128.209 33.2071C128.52 33.5186 128.947 33.738 129.377 33.9062C129.825 34.0817 130.371 34.2366 130.999 34.3762L131.433 32.4238C130.861 32.2968 130.424 32.1683 130.105 32.0438C129.769 31.912 129.645 31.8148 129.623 31.7929L128.209 33.2071ZM131.016 34.3799L133.716 34.9299L134.116 32.9701L131.416 32.4201L131.016 34.3799ZM132.916 33.95V35H134.916V33.95H132.916ZM133.916 34H116.566V36H133.916V34ZM117.566 35V33.95H115.566V35H117.566ZM116.769 34.9291L119.419 34.3791L119.013 32.4209L116.363 32.9709L116.769 34.9291ZM119.427 34.3774C120.072 34.2381 120.63 34.0837 121.086 33.9089C121.522 33.7418 121.958 33.5225 122.273 33.2071L120.859 31.7929C120.859 31.7923 120.852 31.8003 120.831 31.8154C120.81 31.8303 120.78 31.8501 120.738 31.8739C120.653 31.9222 120.533 31.979 120.371 32.0411C120.044 32.1663 119.594 32.2952 119.005 32.4226L119.427 34.3774ZM122.273 33.2071C122.618 32.8622 122.806 32.4125 122.913 31.9745C123.021 31.5283 123.066 31.0129 123.066 30.45H121.066C121.066 30.9204 121.027 31.2634 120.969 31.5005C120.91 31.7458 120.847 31.8045 120.859 31.7929L122.273 33.2071ZM123.066 30.45V5.9H121.066V30.45H123.066ZM123.066 5.9C123.066 5.32226 123.022 4.79615 122.914 4.34338C122.808 3.90098 122.622 3.4421 122.273 3.09289L120.859 4.50711C120.843 4.49123 120.907 4.54902 120.968 4.80662C121.027 5.05384 121.066 5.41107 121.066 5.9H123.066ZM122.273 3.09289C121.951 2.77121 121.508 2.55609 121.069 2.39712C120.608 2.23066 120.048 2.08958 119.402 1.96743L119.03 3.93257C119.618 4.04375 120.065 4.161 120.388 4.27788C120.549 4.33592 120.666 4.38939 120.748 4.43476C120.833 4.48135 120.861 4.50875 120.859 4.50711L122.273 3.09289ZM119.419 1.97086L116.769 1.42087L116.363 3.37913L119.013 3.92913L119.419 1.97086ZM117.566 2.4V1.35H115.566V2.4H117.566ZM116.566 2.35H130.566V0.349998H116.566V2.35ZM130.566 2.35C135.341 2.35 138.917 3.15475 141.398 4.65562L142.434 2.94438C139.515 1.17858 135.524 0.349998 130.566 0.349998V2.35ZM141.406 4.66029C143.828 6.09553 144.966 8.04891 144.966 10.6H146.966C146.966 7.28442 145.404 4.70446 142.426 2.93971L141.406 4.66029ZM144.966 10.6C144.966 11.9134 144.572 13.0853 143.769 14.1466L145.363 15.3534C146.427 13.948 146.966 12.3532 146.966 10.6H144.966ZM143.766 14.15C142.972 15.2091 141.883 16.0984 140.469 16.8056L141.363 18.5944C143.015 17.7683 144.36 16.6909 145.366 15.35L143.766 14.15ZM140.461 16.8096C139.076 17.5172 137.544 17.9685 135.856 18.1561L136.076 20.1439C137.988 19.9315 139.756 19.4162 141.371 18.5904L140.461 16.8096ZM134.966 19.15V19.25H136.966V19.15H134.966ZM135.944 20.2498C137.309 20.2794 138.472 20.6322 139.467 21.2857L140.565 19.6143C139.226 18.7345 137.69 18.2872 135.988 18.2502L135.944 20.2498ZM139.467 21.2857C140.54 21.9907 141.513 22.8843 142.385 23.9747L143.947 22.7253C142.953 21.4823 141.826 20.4426 140.565 19.6143L139.467 21.2857ZM142.396 23.988C143.34 25.1272 144.236 26.3326 145.084 27.6047L146.748 26.4953C145.863 25.1674 144.925 23.9061 143.936 22.712L142.396 23.988ZM145.098 27.6249C145.974 28.8721 146.852 30.0535 147.731 31.1689L149.302 29.9311C148.447 28.8465 147.591 27.6946 146.734 26.4751L145.098 27.6249ZM147.74 31.1806C148.648 32.2982 149.59 33.2273 150.571 33.9536L151.761 32.3464C150.942 31.7394 150.117 30.9352 149.292 29.9194L147.74 31.1806ZM150.585 33.9637C151.655 34.7284 152.804 35.15 154.016 35.15V33.15C153.294 33.15 152.543 32.905 151.747 32.3363L150.585 33.9637ZM153.016 34.15V35.25H155.016V34.15H153.016ZM153.773 34.2799C152.648 34.5612 151.546 34.7 150.466 34.7V36.7C151.719 36.7 152.984 36.5388 154.259 36.2201L153.773 34.2799ZM128.416 19.6H130.566V17.6H128.416V19.6ZM130.566 19.6C132.377 19.6 134.031 19.2979 135.507 18.6703L134.725 16.8297C133.535 17.3355 132.155 17.6 130.566 17.6V19.6ZM135.499 18.6737C137.023 18.0418 138.249 17.0945 139.136 15.8218L137.496 14.6782C136.849 15.6055 135.942 16.3249 134.733 16.8263L135.499 18.6737ZM139.144 15.8103C140.047 14.4754 140.466 12.8511 140.466 11H138.466C138.466 12.5489 138.118 13.758 137.488 14.6897L139.144 15.8103ZM140.466 11C140.466 8.11162 139.553 5.77773 137.6 4.17673L136.332 5.72327C137.713 6.8556 138.466 8.55504 138.466 11H140.466ZM137.609 4.18429C135.703 2.58287 133.093 1.85 129.916 1.85V3.85C132.806 3.85 134.896 4.51713 136.323 5.7157L137.609 4.18429ZM129.916 1.85H128.416V3.85H129.916V1.85ZM127.416 2.85V18.6H129.416V2.85H127.416ZM157.921 35H156.921V36H157.921V35ZM157.921 33.95L157.718 32.9709L156.921 33.1362V33.95H157.921ZM160.571 33.4L160.775 34.3792L160.783 34.3774L160.571 33.4ZM162.921 32.5L162.214 31.7929L162.214 31.7929L162.921 32.5ZM162.921 3.8L162.214 4.50711L162.214 4.50711L162.921 3.8ZM160.571 2.95L160.368 3.92913L160.377 3.93093L160.386 3.93257L160.571 2.95ZM157.921 2.4H156.921V3.21376L157.718 3.37913L157.921 2.4ZM157.921 1.35V0.349998H156.921V1.35H157.921ZM175.271 1.35H176.271V0.349998H175.271V1.35ZM175.271 2.4L175.471 3.37988L176.271 3.21683V2.4H175.271ZM172.571 2.95L172.762 3.93165L172.771 3.92988L172.571 2.95ZM170.271 3.8L169.564 3.09289L169.564 3.09289L170.271 3.8ZM170.471 32.7L169.719 33.3585L169.741 33.3836L169.764 33.4071L170.471 32.7ZM183.271 32.9L182.937 31.9575L182.927 31.9611L183.271 32.9ZM185.971 31.3L186.646 32.0385L186.646 32.0385L185.971 31.3ZM187.921 28.9L188.782 29.4098L188.784 29.4054L187.921 28.9ZM189.971 25.4V24.4H189.398L189.109 24.8946L189.971 25.4ZM191.021 25.4L191.997 25.6216L192.274 24.4H191.021V25.4ZM190.071 30.2L189.086 30.0295L189.085 30.0387L189.083 30.0479L190.071 30.2ZM189.621 35V36H190.599L190.621 35.0227L189.621 35ZM158.921 35V33.95H156.921V35H158.921ZM158.125 34.9291L160.775 34.3791L160.368 32.4209L157.718 32.9709L158.125 34.9291ZM160.783 34.3774C161.427 34.2381 161.985 34.0837 162.442 33.9089C162.878 33.7418 163.313 33.5225 163.629 33.2071L162.214 31.7929C162.215 31.7923 162.207 31.8003 162.186 31.8154C162.166 31.8303 162.136 31.8501 162.094 31.8739C162.009 31.9222 161.889 31.979 161.726 32.0411C161.4 32.1663 160.949 32.2952 160.36 32.4226L160.783 34.3774ZM163.629 33.2071C163.974 32.8622 164.161 32.4125 164.268 31.9745C164.377 31.5283 164.421 31.0129 164.421 30.45H162.421C162.421 30.9204 162.383 31.2634 162.325 31.5005C162.265 31.7458 162.203 31.8045 162.214 31.7929L163.629 33.2071ZM164.421 30.45V5.9H162.421V30.45H164.421ZM164.421 5.9C164.421 5.32226 164.377 4.79615 164.269 4.34338C164.164 3.90098 163.978 3.4421 163.629 3.09289L162.214 4.50711C162.199 4.49123 162.262 4.54902 162.324 4.80662C162.383 5.05384 162.421 5.41107 162.421 5.9H164.421ZM163.629 3.09289C163.307 2.77121 162.864 2.55609 162.424 2.39712C161.964 2.23066 161.403 2.08958 160.757 1.96743L160.386 3.93257C160.973 4.04375 161.421 4.161 161.744 4.27788C161.904 4.33592 162.022 4.38939 162.104 4.43476C162.188 4.48135 162.216 4.50875 162.214 4.50711L163.629 3.09289ZM160.775 1.97086L158.125 1.42087L157.718 3.37913L160.368 3.92913L160.775 1.97086ZM158.921 2.4V1.35H156.921V2.4H158.921ZM157.921 2.35H175.271V0.349998H157.921V2.35ZM174.271 1.35V2.4H176.271V1.35H174.271ZM175.072 1.42012L172.372 1.97012L172.771 3.92988L175.471 3.37988L175.072 1.42012ZM172.381 1.96838C171.751 2.09084 171.202 2.23238 170.75 2.3995C170.316 2.55971 169.882 2.77508 169.564 3.09289L170.979 4.50711C170.978 4.50776 170.985 4.50041 171.005 4.48641C171.024 4.47249 171.052 4.45393 171.092 4.43166C171.173 4.38638 171.287 4.33319 171.443 4.27549C171.758 4.15928 172.192 4.04249 172.762 3.93161L172.381 1.96838ZM169.564 3.09289C169.215 3.4421 169.029 3.90098 168.924 4.34338C168.816 4.79615 168.771 5.32226 168.771 5.9H170.771C170.771 5.41107 170.81 5.05384 170.869 4.80662C170.931 4.54902 170.994 4.49123 170.979 4.50711L169.564 3.09289ZM168.771 5.9V30.45H170.771V5.9H168.771ZM168.771 30.45C168.771 31.5703 169.043 32.5857 169.719 33.3585L171.224 32.0415C170.967 31.7476 170.771 31.263 170.771 30.45H168.771ZM169.764 33.4071C170.567 34.2098 171.883 34.45 173.321 34.45V32.45C171.96 32.45 171.376 32.1902 171.179 31.9929L169.764 33.4071ZM173.321 34.45H179.821V32.45H173.321V34.45ZM179.821 34.45C181.214 34.45 182.484 34.2538 183.616 33.8389L182.927 31.9611C182.059 32.2795 181.029 32.45 179.821 32.45V34.45ZM183.606 33.8424C184.758 33.4337 185.775 32.8335 186.646 32.0385L185.297 30.5615C184.635 31.1665 183.852 31.633 182.937 31.9576L183.606 33.8424ZM186.646 32.0385C187.486 31.2713 188.198 30.3941 188.782 29.4098L187.061 28.3902C186.578 29.2059 185.99 29.9287 185.297 30.5615L186.646 32.0385ZM188.784 29.4054L190.834 25.9054L189.109 24.8946L187.059 28.3946L188.784 29.4054ZM189.971 26.4H191.021V24.4H189.971V26.4ZM190.046 25.1784C189.709 26.6645 189.389 28.2818 189.086 30.0295L191.057 30.3705C191.354 28.6515 191.668 27.0688 191.997 25.6216L190.046 25.1784ZM189.083 30.0479C188.811 31.8161 188.656 33.4599 188.622 34.9773L190.621 35.0227C190.653 33.6068 190.799 32.0506 191.06 30.3521L189.083 30.0479ZM189.621 34H157.921V36H189.621V34ZM193.629 35H192.629V36H193.629V35ZM193.629 33.95L193.416 32.973L192.629 33.1447V33.95H193.629ZM196.379 33.35L196.183 32.3694L196.174 32.3711L196.166 32.373L196.379 33.35ZM198.279 32.6L198.889 33.3927L198.897 33.3863L198.279 32.6ZM199.379 31.15L200.293 31.5561L200.297 31.5455L200.302 31.5347L199.379 31.15ZM209.529 6.8L210.452 7.18475L210.608 6.81041L210.459 6.43313L209.529 6.8ZM208.129 3.25L208.094 2.25059L206.679 2.2994L207.199 3.61687L208.129 3.25ZM210.579 2.65L211.061 3.52622L211.077 3.51716L211.093 3.50749L210.579 2.65ZM212.079 1.35L212.893 1.93124L212.902 1.91811L212.911 1.9047L212.079 1.35ZM212.579 0.0999993V-0.900001H211.579V0.0999993H212.579ZM213.179 0.0999993L214.104 -0.280825L213.849 -0.900001H213.179V0.0999993ZM226.029 31.3L225.104 31.6808L225.11 31.6957L225.117 31.7104L226.029 31.3ZM227.129 32.75L226.56 33.5722L226.56 33.5722L227.129 32.75ZM229.079 33.45L229.283 32.471L229.275 32.4694L229.268 32.468L229.079 33.45ZM231.479 33.95H232.479V33.1369L231.683 32.971L231.479 33.95ZM231.479 35V36H232.479V35H231.479ZM214.279 35H213.279V36H214.279V35ZM214.279 33.95L214.09 32.968L213.279 33.124V33.95H214.279ZM216.879 33.45L217.068 34.432L217.075 34.4306L216.879 33.45ZM218.629 32.85L219.202 33.6692L219.21 33.6641L219.217 33.6587L218.629 32.85ZM219.079 31.2L218.117 31.4747L218.123 31.4956L218.13 31.5162L219.079 31.2ZM218.829 30.45L219.765 30.0989L219.762 30.0896L219.758 30.0804L218.829 30.45ZM209.879 7.95V6.95H208.405L208.95 8.31961L209.879 7.95ZM210.979 7.95L211.901 8.33673L212.483 6.95H210.979V7.95ZM201.229 31.2L202.123 31.6472L202.138 31.6174L202.151 31.5867L201.229 31.2ZM201.079 31.6L202.049 31.8425L202.049 31.8425L201.079 31.6ZM202.629 33.25L202.445 34.2329L202.452 34.2342L202.459 34.2354L202.629 33.25ZM206.679 33.95H207.679V33.108L206.849 32.9646L206.679 33.95ZM206.679 35V36H207.679V35H206.679ZM204.329 23.65L203.331 23.7105L203.388 24.65H204.329V23.65ZM204.229 22V21H203.166L203.231 22.0605L204.229 22ZM218.579 22H219.579V21H218.579V22ZM218.579 23.65V24.65H219.579V23.65H218.579ZM194.629 35V33.95H192.629V35H194.629ZM193.842 34.927L196.592 34.327L196.166 32.373L193.416 32.973L193.842 34.927ZM196.575 34.3306C197.484 34.1489 198.285 33.8571 198.889 33.3926L197.669 31.8074C197.406 32.0095 196.941 32.2178 196.183 32.3694L196.575 34.3306ZM198.897 33.3863C199.505 32.9086 199.967 32.289 200.293 31.5561L198.465 30.7439C198.257 31.211 197.986 31.5581 197.661 31.8137L198.897 33.3863ZM200.302 31.5347L210.452 7.18475L208.606 6.41525L198.456 30.7652L200.302 31.5347ZM210.459 6.43313L209.059 2.88313L207.199 3.61687L208.599 7.16687L210.459 6.43313ZM208.163 4.2494C209.245 4.21209 210.225 3.98616 211.061 3.52622L210.097 1.77378C209.6 2.04717 208.946 2.22124 208.094 2.25059L208.163 4.2494ZM211.093 3.50749C211.838 3.06056 212.457 2.5417 212.893 1.93124L211.265 0.76876C211.035 1.09163 210.653 1.43944 210.064 1.79251L211.093 3.50749ZM212.911 1.9047C213.277 1.35489 213.579 0.733913 213.579 0.0999993H211.579C211.579 0.0999993 211.579 0.100015 211.579 0.100045C211.579 0.100076 211.579 0.100122 211.579 0.100183C211.579 0.100306 211.579 0.100491 211.579 0.100739C211.579 0.101234 211.579 0.101979 211.579 0.102981C211.579 0.104988 211.578 0.108 211.578 0.112064C211.577 0.120248 211.575 0.132365 211.571 0.148694C211.564 0.181857 211.55 0.228939 211.525 0.291108C211.475 0.417742 211.387 0.584846 211.247 0.795298L212.911 1.9047ZM212.579 1.1H213.179V-0.900001H212.579V1.1ZM212.254 0.480824L225.104 31.6808L226.954 30.9192L214.104 -0.280825L212.254 0.480824ZM225.117 31.7104C225.464 32.4815 225.93 33.136 226.56 33.5722L227.698 31.9278C227.461 31.764 227.194 31.4519 226.941 30.8896L225.117 31.7104ZM226.56 33.5722C227.159 33.9873 227.967 34.2545 228.89 34.432L229.268 32.468C228.458 32.3122 227.965 32.1127 227.698 31.9278L226.56 33.5722ZM228.875 34.429L231.275 34.929L231.683 32.971L229.283 32.471L228.875 34.429ZM230.479 33.95V35H232.479V33.95H230.479ZM231.479 34H214.279V36H231.479V34ZM215.279 35V33.95H213.279V35H215.279ZM214.468 34.932L217.068 34.432L216.69 32.468L214.09 32.968L214.468 34.932ZM217.075 34.4306C217.928 34.26 218.688 34.0293 219.202 33.6692L218.055 32.0308C217.903 32.1374 217.496 32.3067 216.683 32.4694L217.075 34.4306ZM219.217 33.6587C219.828 33.2141 220.179 32.5703 220.179 31.8H218.179C218.179 31.8964 218.163 31.9525 218.041 32.0413L219.217 33.6587ZM220.179 31.8C220.179 31.4868 220.126 31.1802 220.028 30.8838L218.13 31.5162C218.165 31.6198 218.179 31.7132 218.179 31.8H220.179ZM220.04 30.9253C219.965 30.6622 219.873 30.3865 219.765 30.0989L217.893 30.8011C217.985 31.0468 218.059 31.2711 218.117 31.4747L220.04 30.9253ZM219.758 30.0804L210.808 7.58039L208.95 8.31961L217.9 30.8196L219.758 30.0804ZM209.879 8.95H210.979V6.95H209.879V8.95ZM210.057 7.56327L200.307 30.8133L202.151 31.5867L211.901 8.33673L210.057 7.56327ZM200.334 30.7528C200.238 30.9459 200.161 31.1477 200.109 31.3575L202.049 31.8425C202.063 31.7857 202.087 31.7207 202.123 31.6472L200.334 30.7528ZM200.109 31.3575C200.062 31.5428 200.029 31.7442 200.029 31.95H202.029C202.029 31.9548 202.029 31.9484 202.031 31.9289C202.034 31.9096 202.039 31.8812 202.049 31.8425L200.109 31.3575ZM200.029 31.95C200.029 32.5912 200.33 33.1172 200.77 33.5026L202.087 31.9974C202.034 31.9505 202.022 31.9253 202.023 31.9278C202.024 31.9288 202.026 31.9332 202.027 31.9397C202.029 31.9462 202.029 31.9503 202.029 31.95H200.029ZM200.77 33.5026C201.225 33.9004 201.821 34.116 202.445 34.2329L202.813 32.2671C202.37 32.184 202.166 32.0663 202.087 31.9974L200.77 33.5026ZM202.459 34.2354L206.509 34.9354L206.849 32.9646L202.799 32.2646L202.459 34.2354ZM205.679 33.95V35H207.679V33.95H205.679ZM206.679 34H193.629V36H206.679V34ZM205.327 23.5895L205.227 21.9395L203.231 22.0605L203.331 23.7105L205.327 23.5895ZM204.229 23H218.579V21H204.229V23ZM217.579 22V23.65H219.579V22H217.579ZM218.579 22.65H204.329V24.65H218.579V22.65ZM241.259 34.45L240.92 35.3907L240.929 35.394L240.938 35.3971L241.259 34.45ZM236.459 32.45L235.475 32.2711L235.343 33.0003L236.002 33.3393L236.459 32.45ZM236.809 27.9H235.809V27.9106L235.809 27.9213L236.809 27.9ZM236.209 23.2V22.2H234.922L235.24 23.4474L236.209 23.2ZM237.859 23.2L238.854 23.1037L238.767 22.2H237.859V23.2ZM239.459 28.75L238.576 29.2187L238.579 29.2257L238.583 29.2326L239.459 28.75ZM243.109 32.6L242.589 33.4542L242.589 33.4542L243.109 32.6ZM251.859 33.35L251.483 32.4235L251.472 32.4278L251.859 33.35ZM254.509 31.35L253.72 30.7361L253.72 30.7361L254.509 31.35ZM254.759 24.9L253.901 25.4145L253.914 25.4349L253.927 25.4547L254.759 24.9ZM252.009 22.6L251.535 23.4805L251.544 23.4854L252.009 22.6ZM246.459 20.35L246.133 21.2955L246.143 21.2987L246.459 20.35ZM239.509 16.65L238.842 17.3949L238.849 17.4016L239.509 16.65ZM238.359 5.75L237.498 5.24127L237.494 5.24859L237.49 5.25599L238.359 5.75ZM242.109 2.2L242.592 3.07586L242.598 3.07251L242.109 2.2ZM251.309 1.2L250.993 2.14875L251.004 2.15242L251.309 1.2ZM253.509 2.05L253.081 2.95375L253.086 2.95618L253.509 2.05ZM254.859 2.7L254.412 3.59443L254.426 3.60141L254.44 3.60796L254.859 2.7ZM256.159 3V4H256.258L256.355 3.98058L256.159 3ZM257.659 2.7L258.214 1.86795L257.869 1.63818L257.463 1.71942L257.659 2.7ZM257.809 2.8L258.805 2.89053L258.859 2.29798L258.364 1.96794L257.809 2.8ZM257.709 4.05L258.706 4.1267L258.706 4.12125L257.709 4.05ZM257.809 8.05L256.815 8.16043L256.817 8.17853L256.82 8.19655L257.809 8.05ZM258.209 10.35L257.23 10.556L257.236 10.5804L257.242 10.6045L258.209 10.35ZM258.509 11.6V12.6H259.689L259.495 11.4356L258.509 11.6ZM257.259 11.6L256.301 11.8858L256.514 12.6H257.259V11.6ZM255.109 6.7L255.953 6.16446L255.953 6.16446L255.109 6.7ZM252.009 3.5L251.46 4.33577L251.471 4.34269L252.009 3.5ZM244.709 3.2L245.219 4.06034L245.228 4.05479L244.709 3.2ZM242.559 5.3L241.707 4.7759L241.7 4.78798L241.693 4.80028L242.559 5.3ZM242.459 11.1L241.588 11.5921L241.593 11.6004L241.598 11.6087L242.459 11.1ZM244.909 13.15L244.442 14.0344L244.457 14.0421L244.472 14.0492L244.909 13.15ZM250.259 15.25L249.935 16.196L249.947 16.2L250.259 15.25ZM256.009 17.85L255.454 18.6821L255.463 18.688L256.009 17.85ZM259.059 21.05L258.165 21.4972L258.17 21.5073L259.059 21.05ZM258.509 30.65L257.663 30.1167L257.659 30.1233L257.655 30.1301L258.509 30.65ZM254.509 34.25L254.949 35.1479L254.956 35.1444L254.509 34.25ZM248.559 34.5C245.839 34.5 243.519 34.1595 241.58 33.5029L240.938 35.3971C243.133 36.1405 245.679 36.5 248.559 36.5V34.5ZM241.598 33.5093C239.583 32.7825 238.028 32.1326 236.916 31.5607L236.002 33.3393C237.223 33.9674 238.868 34.6508 240.92 35.3907L241.598 33.5093ZM237.443 32.6289C237.722 31.0929 237.843 29.5091 237.809 27.8787L235.809 27.9213C235.841 29.4243 235.729 30.8737 235.475 32.2711L237.443 32.6289ZM237.809 27.9C237.809 26.2473 237.598 24.5975 237.178 22.9526L235.24 23.4474C235.62 24.9358 235.809 26.4194 235.809 27.9H237.809ZM236.209 24.2H237.859V22.2H236.209V24.2ZM236.864 23.2963C237.075 25.4773 237.641 27.4564 238.576 29.2187L240.342 28.2813C239.544 26.7769 239.043 25.0561 238.854 23.1037L236.864 23.2963ZM238.583 29.2326C239.564 31.0125 240.901 32.4266 242.589 33.4542L243.629 31.7458C242.251 30.9068 241.154 29.7541 240.335 28.2674L238.583 29.2326ZM242.589 33.4542C244.309 34.5009 246.347 35 248.659 35V33C246.638 33 244.976 32.5657 243.629 31.7458L242.589 33.4542ZM248.659 35C249.894 35 251.092 34.7559 252.246 34.2722L251.472 32.4278C250.559 32.8108 249.624 33 248.659 33V35ZM252.235 34.2765C253.463 33.7777 254.489 33.004 255.298 31.9639L253.72 30.7361C253.129 31.496 252.388 32.0556 251.483 32.4235L252.235 34.2765ZM255.298 31.9639C256.16 30.8555 256.559 29.4934 256.559 27.95H254.559C254.559 29.1399 254.258 30.0445 253.72 30.7361L255.298 31.9639ZM256.559 27.95C256.559 26.5747 256.261 25.3503 255.591 24.3453L253.927 25.4547C254.324 26.0497 254.559 26.8587 254.559 27.95H256.559ZM255.616 24.3855C254.984 23.3309 253.888 22.4568 252.474 21.7146L251.544 23.4854C252.797 24.1432 253.534 24.8024 253.901 25.4145L255.616 24.3855ZM252.483 21.7195C251.109 20.9798 249.197 20.2086 246.775 19.4013L246.143 21.2987C248.521 22.0914 250.309 22.8202 251.535 23.4805L252.483 21.7195ZM246.785 19.4045C243.856 18.3957 241.67 17.2161 240.169 15.8984L238.849 17.4016C240.614 18.9505 243.062 20.2376 246.133 21.2955L246.785 19.4045ZM240.176 15.9052C238.835 14.7034 238.109 12.9685 238.109 10.55H236.109C236.109 13.3981 236.983 15.7299 238.842 17.3948L240.176 15.9052ZM238.109 10.55C238.109 8.98488 238.483 7.55581 239.228 6.24401L237.49 5.25599C236.568 6.87752 236.109 8.64845 236.109 10.55H238.109ZM239.22 6.25873C239.987 4.96043 241.1 3.89793 242.592 3.07584L241.626 1.32416C239.852 2.30207 238.464 3.60624 237.498 5.24127L239.22 6.25873ZM242.598 3.07251C244.079 2.24264 245.951 1.8 248.259 1.8V-0.200001C245.7 -0.200001 243.472 0.290688 241.62 1.32749L242.598 3.07251ZM248.259 1.8C249.43 1.8 250.33 1.9278 250.993 2.14868L251.625 0.251313C250.688 -0.0611325 249.555 -0.200001 248.259 -0.200001V1.8ZM251.004 2.15242C251.805 2.40876 252.496 2.67664 253.081 2.95374L253.937 1.14626C253.255 0.823354 252.479 0.524568 251.614 0.247573L251.004 2.15242ZM253.086 2.95618C253.58 3.18655 254.021 3.39925 254.412 3.59443L255.306 1.80557C254.897 1.60074 254.438 1.38012 253.932 1.14382L253.086 2.95618ZM254.44 3.60796C254.991 3.86239 255.567 4 256.159 4V2C255.884 2 255.593 1.93761 255.278 1.79204L254.44 3.60796ZM256.355 3.98058L257.855 3.68058L257.463 1.71942L255.963 2.01942L256.355 3.98058ZM257.104 3.53205L257.254 3.63205L258.364 1.96794L258.214 1.86795L257.104 3.53205ZM256.813 2.70946C256.779 3.08399 256.745 3.50728 256.712 3.97875L258.706 4.12125C258.739 3.65939 258.772 3.24934 258.805 2.89053L256.813 2.70946ZM256.712 3.9733C256.677 4.42999 256.659 4.87232 256.659 5.3H258.659C258.659 4.92767 258.675 4.53667 258.706 4.12669L256.712 3.9733ZM256.659 5.3C256.659 6.2691 256.711 7.22266 256.815 8.16043L258.803 7.93957C258.707 7.07734 258.659 6.19756 258.659 5.3H256.659ZM256.82 8.19655C256.955 9.10918 257.092 9.89687 257.23 10.556L259.188 10.144C259.06 9.53646 258.93 8.79082 258.798 7.90345L256.82 8.19655ZM257.242 10.6045C257.411 11.2478 257.498 11.6183 257.523 11.7644L259.495 11.4356C259.453 11.1817 259.34 10.7189 259.176 10.0955L257.242 10.6045ZM258.509 10.6H257.259V12.6H258.509V10.6ZM258.217 11.3142C257.63 9.34511 256.879 7.62387 255.953 6.16446L254.264 7.23554C255.072 8.50946 255.755 10.0549 256.301 11.8858L258.217 11.3142ZM255.953 6.16446C255.019 4.69113 253.886 3.51283 252.547 2.6573L251.471 4.34269C252.532 5.0205 253.465 5.97553 254.264 7.23554L255.953 6.16446ZM252.558 2.66429C251.216 1.78238 249.689 1.35 248.009 1.35V3.35C249.329 3.35 250.469 3.68428 251.46 4.3357L252.558 2.66429ZM248.009 1.35C246.589 1.35 245.303 1.66922 244.19 2.34521L245.228 4.05479C245.981 3.59745 246.896 3.35 248.009 3.35V1.35ZM244.199 2.33971C243.164 2.95332 242.328 3.76714 241.707 4.7759L243.411 5.8241C243.857 5.09953 244.454 4.51335 245.219 4.06029L244.199 2.33971ZM241.693 4.80028C241.102 5.82401 240.809 6.94724 240.809 8.15H242.809C242.809 7.28609 243.016 6.50932 243.425 5.79972L241.693 4.80028ZM240.809 8.15C240.809 9.46255 241.045 10.6306 241.588 11.5921L243.33 10.6079C243.006 10.0361 242.809 9.23745 242.809 8.15H240.809ZM241.598 11.6087C242.166 12.5696 243.167 13.3612 244.442 14.0344L245.376 12.2656C244.251 11.6721 243.619 11.0971 243.32 10.5913L241.598 11.6087ZM244.472 14.0492C245.76 14.6759 247.588 15.3914 249.935 16.1959L250.583 14.3041C248.263 13.5086 246.525 12.8241 245.346 12.2508L244.472 14.0492ZM249.947 16.2C252.334 16.9848 254.158 17.8176 255.454 18.682L256.564 17.0179C255.06 16.0157 253.051 15.1152 250.571 14.3L249.947 16.2ZM255.463 18.688C256.788 19.5506 257.663 20.4942 258.165 21.4972L259.953 20.6028C259.255 19.2058 258.097 18.0161 256.555 17.012L255.463 18.688ZM258.17 21.5073C258.68 22.4995 258.959 23.7505 258.959 25.3H260.959C260.959 23.5161 260.638 21.9339 259.948 20.5927L258.17 21.5073ZM258.959 25.3C258.959 27.1683 258.517 28.7619 257.663 30.1167L259.355 31.1833C260.434 29.4714 260.959 27.4984 260.959 25.3H258.959ZM257.655 30.1301C256.827 31.49 255.641 32.566 254.062 33.3556L254.956 35.1444C256.844 34.2006 258.324 32.8767 259.363 31.1699L257.655 30.1301ZM254.069 33.3521C252.53 34.1063 250.703 34.5 248.559 34.5V36.5C250.948 36.5 253.088 36.0604 254.949 35.1479L254.069 33.3521ZM273.514 35H272.514V36H273.514V35ZM273.514 33.95L273.314 32.9701L272.514 33.1332V33.95H273.514ZM276.214 33.4L276.414 34.3799L276.422 34.3781L276.431 34.3762L276.214 33.4ZM278.514 32.5L279.221 33.2071L279.221 33.2071L278.514 32.5ZM279.014 2.9H280.014V1.9H279.014V2.9ZM271.114 4L271.64 4.85082L271.646 4.84664L271.114 4ZM268.214 6.9L267.375 6.35581L267.37 6.36389L267.365 6.37206L268.214 6.9ZM266.514 10.95V11.95H267.295L267.484 11.1925L266.514 10.95ZM265.214 10.95L264.239 10.7297L263.963 11.95H265.214V10.95ZM265.764 7.75L266.757 7.87033L266.757 7.87033L265.764 7.75ZM266.014 4.45L267.014 4.48029L267.014 4.48029L266.014 4.45ZM265.814 1.35V0.349998H264.627L264.829 1.51991L265.814 1.35ZM298.564 1.35L299.55 1.5199L299.751 0.349998H298.564V1.35ZM298.364 4.45L297.365 4.48029L297.365 4.48029L298.364 4.45ZM298.614 7.75L297.621 7.87033L297.623 7.8851L297.625 7.8998L298.614 7.75ZM299.164 10.95V11.95H300.376L300.146 10.76L299.164 10.95ZM297.914 10.95L296.949 11.2131L297.15 11.95H297.914V10.95ZM296.164 6.9L297.013 6.37206L296.164 6.9ZM293.264 4L292.721 4.83957L292.735 4.84878L292.75 4.85749L293.264 4ZM285.364 2.9V1.9H284.364V2.9H285.364ZM285.864 32.5L285.157 33.2071L285.174 33.2239L285.191 33.2399L285.864 32.5ZM288.214 33.4L287.997 34.3763L288.011 34.3791L288.214 33.4ZM290.864 33.95H291.864V33.1362L291.067 32.9709L290.864 33.95ZM290.864 35V36H291.864V35H290.864ZM274.514 35V33.95H272.514V35H274.514ZM273.714 34.9299L276.414 34.3799L276.014 32.4201L273.314 32.9701L273.714 34.9299ZM276.431 34.3762C277.059 34.2366 277.605 34.0817 278.053 33.9062C278.483 33.738 278.91 33.5186 279.221 33.2071L277.807 31.7929C277.785 31.8148 277.661 31.912 277.325 32.0438C277.006 32.1683 276.569 32.2968 275.997 32.4238L276.431 34.3762ZM279.221 33.2071C279.566 32.8622 279.754 32.4125 279.861 31.9745C279.969 31.5283 280.014 31.0129 280.014 30.45H278.014C278.014 30.9204 277.975 31.2634 277.918 31.5005C277.858 31.7458 277.795 31.8045 277.807 31.7929L279.221 33.2071ZM280.014 30.45V2.9H278.014V30.45H280.014ZM279.014 1.9H275.064V3.9H279.014V1.9ZM275.064 1.9C273.422 1.9 271.918 2.3133 270.582 3.15336L271.646 4.84664C272.643 4.22004 273.773 3.9 275.064 3.9V1.9ZM270.589 3.1492C269.317 3.9347 268.247 5.01134 267.375 6.35581L269.053 7.44419C269.781 6.32199 270.645 5.46529 271.64 4.8508L270.589 3.1492ZM267.365 6.37206C266.541 7.69725 265.935 9.14413 265.544 10.7075L267.484 11.1925C267.827 9.82253 268.354 8.56941 269.063 7.42793L267.365 6.37206ZM266.514 9.95H265.214V11.95H266.514V9.95ZM266.19 11.1703C266.431 10.1025 266.62 9.00238 266.757 7.87033L264.771 7.62967C264.642 8.69762 264.464 9.73087 264.239 10.7297L266.19 11.1703ZM266.757 7.87033C266.894 6.74064 266.979 5.6106 267.014 4.48029L265.015 4.41971C264.982 5.4894 264.901 6.55936 264.771 7.62967L266.757 7.87033ZM267.014 4.48029C267.049 3.32124 266.979 2.22028 266.8 1.18009L264.829 1.51991C264.983 2.41305 265.046 3.37876 265.015 4.41971L267.014 4.48029ZM265.814 2.35H298.564V0.349998H265.814V2.35ZM297.579 1.18009C297.399 2.22028 297.329 3.32124 297.365 4.48029L299.364 4.41971C299.332 3.37876 299.396 2.41305 299.55 1.5199L297.579 1.18009ZM297.365 4.48029C297.399 5.6106 297.484 6.74064 297.621 7.87033L299.607 7.62967C299.477 6.55936 299.396 5.4894 299.364 4.41971L297.365 4.48029ZM297.625 7.8998C297.794 9.0125 297.98 10.0926 298.182 11.14L300.146 10.76C299.949 9.74073 299.768 8.6875 299.603 7.60019L297.625 7.8998ZM299.164 9.95H297.914V11.95H299.164V9.95ZM298.879 10.6869C298.455 9.13121 297.833 7.69139 297.013 6.37206L295.315 7.42793C296.028 8.57527 296.574 9.83545 296.949 11.2131L298.879 10.6869ZM297.013 6.37206C296.169 5.01317 295.091 3.92968 293.779 3.14251L292.75 4.85749C293.771 5.47032 294.626 6.32016 295.315 7.42793L297.013 6.37206ZM293.807 3.16043C292.494 2.31094 290.985 1.9 289.314 1.9V3.9C290.643 3.9 291.767 4.22239 292.721 4.83957L293.807 3.16043ZM289.314 1.9H285.364V3.9H289.314V1.9ZM284.364 2.9V30.45H286.364V2.9H284.364ZM284.364 30.45C284.364 31.0129 284.409 31.5283 284.518 31.9745C284.624 32.4125 284.812 32.8622 285.157 33.2071L286.571 31.7929C286.583 31.8045 286.52 31.7458 286.461 31.5005C286.403 31.2634 286.364 30.9204 286.364 30.45H284.364ZM285.191 33.2399C285.509 33.5287 285.93 33.7409 286.369 33.9089C286.822 34.0824 287.369 34.2366 287.997 34.3762L288.431 32.4238C287.859 32.2967 287.414 32.1676 287.084 32.0411C286.74 31.9091 286.586 31.8046 286.537 31.7601L285.191 33.2399ZM288.011 34.3791L290.661 34.9291L291.067 32.9709L288.417 32.4209L288.011 34.3791ZM289.864 33.95V35H291.864V33.95H289.864ZM290.864 34H273.514V36H290.864V34ZM303.373 35H302.373V36H303.373V35ZM303.373 33.95L303.173 32.9701L302.373 33.1332V33.95H303.373ZM306.073 33.4L306.272 34.3799L306.281 34.3781L306.29 34.3762L306.073 33.4ZM308.373 32.5L307.666 31.7929L307.666 31.7929L308.373 32.5ZM308.373 3.8L307.666 4.50711L307.666 4.50711L308.373 3.8ZM306.073 2.95L305.873 3.92991L305.882 3.93161L306.073 2.95ZM303.373 2.4H302.373V3.21683L303.173 3.37988L303.373 2.4ZM303.373 1.35V0.349998H302.373V1.35H303.373ZM320.723 1.35H321.723V0.349998H320.723V1.35ZM320.723 2.4L320.922 3.37988L321.723 3.21683V2.4H320.723ZM318.023 2.95L318.214 3.93165L318.222 3.92988L318.023 2.95ZM315.723 3.8L315.016 3.09289L315.016 3.09289L315.723 3.8ZM315.723 32.5L315.016 33.2071L315.016 33.2071L315.723 32.5ZM318.023 33.4L317.806 34.3762L317.814 34.3781L317.823 34.3799L318.023 33.4ZM320.723 33.95H321.723V33.1332L320.922 32.9701L320.723 33.95ZM320.723 35V36H321.723V35H320.723ZM304.373 35V33.95H302.373V35H304.373ZM303.572 34.9299L306.272 34.3799L305.873 32.4201L303.173 32.9701L303.572 34.9299ZM306.29 34.3762C306.918 34.2366 307.464 34.0817 307.912 33.9062C308.342 33.738 308.768 33.5186 309.08 33.2071L307.666 31.7929C307.644 31.8148 307.52 31.912 307.183 32.0438C306.865 32.1683 306.427 32.2968 305.856 32.4238L306.29 34.3762ZM309.08 33.2071C309.425 32.8622 309.612 32.4125 309.719 31.9745C309.828 31.5283 309.873 31.0129 309.873 30.45H307.873C307.873 30.9204 307.834 31.2634 307.776 31.5005C307.716 31.7458 307.654 31.8045 307.666 31.7929L309.08 33.2071ZM309.873 30.45V5.9H307.873V30.45H309.873ZM309.873 5.9C309.873 5.32226 309.828 4.79615 309.72 4.34338C309.615 3.90098 309.429 3.4421 309.08 3.09289L307.666 4.50711C307.65 4.49123 307.714 4.54902 307.775 4.80662C307.834 5.05384 307.873 5.41107 307.873 5.9H309.873ZM309.08 3.09289C308.762 2.77508 308.328 2.55971 307.894 2.3995C307.442 2.23238 306.893 2.09084 306.264 1.96838L305.882 3.93161C306.452 4.04249 306.887 4.15928 307.201 4.27549C307.357 4.33319 307.472 4.38638 307.552 4.43165C307.592 4.45393 307.62 4.47248 307.64 4.48641C307.659 4.50041 307.666 4.50776 307.666 4.50711L309.08 3.09289ZM306.272 1.97012L303.572 1.42012L303.173 3.37988L305.873 3.92988L306.272 1.97012ZM304.373 2.4V1.35H302.373V2.4H304.373ZM303.373 2.35H320.723V0.349998H303.373V2.35ZM319.723 1.35V2.4H321.723V1.35H319.723ZM320.523 1.42012L317.823 1.97012L318.222 3.92988L320.922 3.37988L320.523 1.42012ZM317.832 1.96838C317.202 2.09084 316.653 2.23238 316.201 2.3995C315.768 2.55971 315.333 2.77508 315.016 3.09289L316.43 4.50711C316.429 4.50776 316.436 4.50041 316.456 4.48641C316.475 4.47249 316.503 4.45393 316.543 4.43166C316.624 4.38638 316.738 4.33319 316.894 4.27549C317.209 4.15928 317.643 4.04249 318.214 3.93161L317.832 1.96838ZM315.016 3.09289C314.666 3.4421 314.48 3.90098 314.375 4.34338C314.267 4.79615 314.223 5.32226 314.223 5.9H316.223C316.223 5.41107 316.262 5.05384 316.32 4.80662C316.382 4.54902 316.446 4.49123 316.43 4.50711L315.016 3.09289ZM314.223 5.9V30.45H316.223V5.9H314.223ZM314.223 30.45C314.223 31.0129 314.267 31.5283 314.376 31.9745C314.483 32.4125 314.671 32.8622 315.016 33.2071L316.43 31.7929C316.441 31.8045 316.379 31.7458 316.319 31.5005C316.261 31.2634 316.223 30.9204 316.223 30.45H314.223ZM315.016 33.2071C315.327 33.5186 315.753 33.738 316.183 33.9062C316.632 34.0817 317.177 34.2366 317.806 34.3762L318.24 32.4238C317.668 32.2968 317.23 32.1683 316.912 32.0438C316.575 31.912 316.452 31.8148 316.43 31.7929L315.016 33.2071ZM317.823 34.3799L320.523 34.9299L320.922 32.9701L318.222 32.4201L317.823 34.3799ZM319.723 33.95V35H321.723V33.95H319.723ZM320.723 34H303.373V36H320.723V34ZM358.827 35.85L358.081 36.5165L358.38 36.85H358.827V35.85ZM333.527 7.55L334.272 6.88351L332.527 4.93102V7.55H333.527ZM334.177 32.35L333.47 33.0571L333.484 33.0712L333.499 33.0848L334.177 32.35ZM336.327 33.25L336.131 34.2306L336.131 34.2306L336.327 33.25ZM339.827 33.95H340.827V33.1302L340.023 32.9694L339.827 33.95ZM339.827 35V36H340.827V35H339.827ZM326.027 35H325.027V36H326.027V35ZM326.027 33.95L325.828 32.9701L325.027 33.1329V33.95H326.027ZM328.977 33.35L329.176 34.3299L329.187 34.3278L329.197 34.3254L328.977 33.35ZM331.177 32.4L331.855 33.1348L331.855 33.1348L331.177 32.4ZM331.627 4.35L330.678 4.66623L330.683 4.67904L330.687 4.69174L331.627 4.35ZM330.777 3.5L330.358 4.40796L330.388 4.42163L330.418 4.43334L330.777 3.5ZM328.777 2.9L328.994 1.92381L328.983 1.9215L328.973 1.91942L328.777 2.9ZM326.277 2.4H325.277V3.2198L326.081 3.38058L326.277 2.4ZM326.277 1.35V0.349998H325.277V1.35H326.277ZM336.327 1.35L337.069 0.679491L336.771 0.349998H336.327V1.35ZM357.927 25.25L357.185 25.9205L358.934 27.8554L358.927 25.2474L357.927 25.25ZM357.877 6L356.877 6L356.877 6.0026L357.877 6ZM357.227 4L356.492 4.67828L356.506 4.69297L356.52 4.70711L357.227 4ZM355.077 3.1L354.881 4.08058L354.899 4.08426L354.918 4.08724L355.077 3.1ZM351.577 2.4H350.577V3.2198L351.381 3.38058L351.577 2.4ZM351.577 1.35V0.349998H350.577V1.35H351.577ZM365.377 1.35H366.377V0.349998H365.377V1.35ZM365.377 2.4L365.576 3.37994L366.377 3.21708V2.4H365.377ZM362.427 3L362.228 2.02006L362.217 2.0222L362.207 2.02456L362.427 3ZM360.227 3.95L359.549 3.21519L359.534 3.22875L359.52 3.24289L360.227 3.95ZM359.627 35.85V36.85H360.627V35.85H359.627ZM359.572 35.1835L334.272 6.88351L332.781 8.21649L358.081 36.5165L359.572 35.1835ZM332.527 7.55V30.35H334.527V7.55H332.527ZM332.527 30.35C332.527 31.3914 332.777 32.3638 333.47 33.0571L334.884 31.6429C334.711 31.4695 334.527 31.1086 334.527 30.35H332.527ZM333.499 33.0848C334.133 33.6705 335.066 34.0176 336.131 34.2306L336.523 32.2694C335.588 32.0824 335.087 31.8295 334.855 31.6152L333.499 33.0848ZM336.131 34.2306L339.631 34.9306L340.023 32.9694L336.523 32.2694L336.131 34.2306ZM338.827 33.95V35H340.827V33.95H338.827ZM339.827 34H326.027V36H339.827V34ZM327.027 35V33.95H325.027V35H327.027ZM326.226 34.9299L329.176 34.3299L328.778 32.3701L325.828 32.9701L326.226 34.9299ZM329.197 34.3254C330.285 34.0799 331.227 33.7149 331.855 33.1348L330.499 31.6652C330.26 31.8851 329.736 32.1535 328.757 32.3746L329.197 34.3254ZM331.855 33.1348C332.587 32.4594 332.827 31.4533 332.827 30.4H330.827C330.827 31.2134 330.634 31.5406 330.499 31.6652L331.855 33.1348ZM332.827 30.4V6H330.827V30.4H332.827ZM332.827 6C332.827 5.23397 332.761 4.54239 332.567 4.00826L330.687 4.69174C330.76 4.89094 330.827 5.29936 330.827 6H332.827ZM332.576 4.03377C332.337 3.31929 331.816 2.82828 331.136 2.56665L330.418 4.43334C330.604 4.50505 330.65 4.58071 330.678 4.66623L332.576 4.03377ZM331.196 2.59204C330.663 2.34605 329.912 2.12779 328.994 1.92381L328.56 3.87619C329.442 4.0722 330.024 4.25395 330.358 4.40796L331.196 2.59204ZM328.973 1.91942L326.473 1.41942L326.081 3.38058L328.581 3.88058L328.973 1.91942ZM327.277 2.4V1.35H325.277V2.4H327.277ZM326.277 2.35H336.327V0.349998H326.277V2.35ZM335.585 2.0205L357.185 25.9205L358.669 24.5795L337.069 0.679491L335.585 2.0205ZM358.927 25.2474L358.877 5.9974L356.877 6.0026L356.927 25.2526L358.927 25.2474ZM358.877 6C358.877 4.95863 358.627 3.98617 357.934 3.29289L356.52 4.70711C356.693 4.88049 356.877 5.24137 356.877 6H358.877ZM357.962 3.32172C357.331 2.63817 356.338 2.29049 355.236 2.11276L354.918 4.08724C355.882 4.24284 356.323 4.49516 356.492 4.67828L357.962 3.32172ZM355.273 2.11942L351.773 1.41942L351.381 3.38058L354.881 4.08058L355.273 2.11942ZM352.577 2.4V1.35H350.577V2.4H352.577ZM351.577 2.35H365.377V0.349998H351.577V2.35ZM364.377 1.35V2.4H366.377V1.35H364.377ZM365.178 1.42006L362.228 2.02006L362.626 3.97993L365.576 3.37994L365.178 1.42006ZM362.207 2.02456C361.119 2.27013 360.177 2.63512 359.549 3.21519L360.905 4.6848C361.143 4.46488 361.668 4.19654 362.647 3.97544L362.207 2.02456ZM359.52 3.24289C358.842 3.92095 358.627 4.91515 358.627 5.95H360.627C360.627 5.11818 360.812 4.77904 360.934 4.6571L359.52 3.24289ZM358.627 5.95V35.85H360.627V5.95H358.627ZM359.627 34.85H358.827V36.85H359.627V34.85ZM380.945 34.35L380.603 35.2898L380.608 35.2914L380.945 34.35ZM374.995 30.9L375.642 30.1377L375.642 30.1377L374.995 30.9ZM370.795 11.25L369.892 10.82L369.887 10.8319L370.795 11.25ZM374.845 5.75L375.523 6.48535L375.523 6.48535L374.845 5.75ZM380.745 2.15L381.095 3.0869L381.095 3.0869L380.745 2.15ZM392.145 1.25L391.943 2.22946L391.96 2.23281L391.976 2.23562L392.145 1.25ZM395.095 2.05L394.71 2.97308L394.727 2.98L394.744 2.98633L395.095 2.05ZM397.245 2.85L396.899 3.78834L396.907 3.79116L396.915 3.79386L397.245 2.85ZM400.345 3.15L400.469 4.14228L400.516 4.13642L400.562 4.12619L400.345 3.15ZM401.195 2.95L401.902 2.24289L401.502 1.84254L400.952 1.97986L401.195 2.95ZM401.345 3.1L402.321 3.31693L402.44 2.78106L402.052 2.39289L401.345 3.1ZM401.145 4.15L402.131 4.3144L402.131 4.3144L401.145 4.15ZM401.245 8.2L400.254 8.33664L400.255 8.34142L401.245 8.2ZM401.645 10.55L400.666 10.756L400.672 10.7804L400.678 10.8045L401.645 10.55ZM401.945 11.6V12.6H403.563L402.839 11.1528L401.945 11.6ZM400.395 11.6L399.457 11.9473L399.699 12.6H400.395V11.6ZM397.645 6.85L398.405 6.20074L398.405 6.20074L397.645 6.85ZM393.495 3.65L393.048 4.54443L393.055 4.54818L393.063 4.55181L393.495 3.65ZM383.195 3.7L382.701 2.83054L382.701 2.83054L383.195 3.7ZM379.445 7.15L378.627 6.57404L378.625 6.57782L379.445 7.15ZM377.095 12.15L376.137 11.8642L376.137 11.8642L377.095 12.15ZM376.895 24.1L375.92 24.3224L375.922 24.3305L375.924 24.3385L376.895 24.1ZM379.045 29.2L378.204 29.7417L378.21 29.7503L379.045 29.2ZM382.845 32.7L382.361 33.575L382.368 33.579L382.375 33.5829L382.845 32.7ZM391.945 33.5L392.17 34.4744L392.179 34.4723L392.187 34.4701L391.945 33.5ZM395.645 31.5L396.307 32.2498L396.645 31.9513V31.5H395.645ZM395.095 22.1L394.388 22.8071L394.405 22.8239L394.422 22.8399L395.095 22.1ZM392.795 21.25L392.595 22.2299L392.604 22.2316L392.795 21.25ZM390.095 20.7H389.095V21.5168L389.895 21.6799L390.095 20.7ZM390.095 19.65V18.65H389.095V19.65H390.095ZM406.795 19.65H407.795V18.65H406.795V19.65ZM406.795 20.7L406.972 21.6843L407.795 21.5365V20.7H406.795ZM404.845 21.05L404.668 20.0657L404.661 20.067L404.654 20.0684L404.845 21.05ZM402.495 21.95L401.788 21.2429L401.771 21.2597L401.755 21.2773L402.495 21.95ZM401.995 33.55L402.702 34.2571L402.995 33.9642V33.55H401.995ZM401.845 33.7L401.602 34.6701L402.152 34.8075L402.552 34.4071L401.845 33.7ZM400.795 33.5L400.552 34.4701L400.618 34.4865L400.684 34.4939L400.795 33.5ZM397.695 33.7L397.927 34.6728L397.948 34.6676L397.97 34.6615L397.695 33.7ZM395.395 34.35L395.653 35.3162L395.676 35.3099L395.7 35.3024L395.395 34.35ZM392.045 35.15L391.834 34.1726L391.828 34.1738L392.045 35.15ZM387.995 34.55C385.639 34.55 383.403 34.1683 381.282 33.4086L380.608 35.2914C382.954 36.1317 385.418 36.55 387.995 36.55V34.55ZM381.287 33.4102C379.197 32.6504 377.317 31.5601 375.642 30.1377L374.348 31.6623C376.206 33.2399 378.293 34.4496 380.603 35.2898L381.287 33.4102ZM375.642 30.1377C373.987 28.7321 372.691 27.0313 371.75 25.0256L369.939 25.8744C370.999 28.1354 372.47 30.0679 374.348 31.6623L375.642 30.1377ZM371.75 25.0256C370.821 23.0432 370.345 20.7747 370.345 18.2H368.345C368.345 21.0253 368.869 23.5902 369.939 25.8744L371.75 25.0256ZM370.345 18.2C370.345 15.797 370.803 13.6249 371.703 11.6681L369.887 10.8319C368.854 13.0751 368.345 15.5363 368.345 18.2H370.345ZM371.698 11.6799C372.643 9.69445 373.917 7.96498 375.523 6.48535L374.167 5.01464C372.373 6.66835 370.947 8.60554 369.892 10.8201L371.698 11.6799ZM375.523 6.48535C377.124 5.00924 378.979 3.87638 381.095 3.0869L380.395 1.2131C378.044 2.09028 375.965 3.35743 374.167 5.01464L375.523 6.48535ZM381.095 3.0869C383.209 2.29786 385.473 1.9 387.895 1.9V-0.100002C385.25 -0.100002 382.747 0.335474 380.395 1.2131L381.095 3.0869ZM387.895 1.9C389.556 1.9 390.899 2.01452 391.943 2.22946L392.347 0.270543C391.124 0.0188144 389.634 -0.100002 387.895 -0.100002V1.9ZM391.976 2.23562C393.094 2.4272 394 2.67694 394.71 2.97308L395.48 1.12692C394.59 0.756392 393.53 0.472797 392.314 0.264377L391.976 2.23562ZM394.744 2.98633C395.545 3.28684 396.264 3.55419 396.899 3.78834L397.591 1.91166C396.96 1.67914 396.245 1.41316 395.446 1.11367L394.744 2.98633ZM396.915 3.79386C397.696 4.0674 398.525 4.2 399.395 4.2V2.2C398.731 2.2 398.127 2.09927 397.575 1.90614L396.915 3.79386ZM399.395 4.2C399.789 4.2 400.149 4.18222 400.469 4.14228L400.221 2.15772C400.007 2.18444 399.734 2.2 399.395 2.2V4.2ZM400.562 4.12619C400.869 4.05783 401.161 3.98916 401.437 3.92014L400.952 1.97986C400.695 2.04416 400.42 2.10883 400.128 2.17381L400.562 4.12619ZM400.488 3.65711L400.638 3.80711L402.052 2.39289L401.902 2.24289L400.488 3.65711ZM400.369 2.88307C400.297 3.20495 400.227 3.57319 400.159 3.9856L402.131 4.3144C402.196 3.92681 402.259 3.59504 402.321 3.31693L400.369 2.88307ZM400.159 3.9856C400.084 4.4343 400.045 4.87282 400.045 5.3H402.045C402.045 4.99384 402.073 4.6657 402.131 4.3144L400.159 3.9856ZM400.045 5.3C400.045 6.3128 400.115 7.32512 400.254 8.33664L402.236 8.06336C402.108 7.14154 402.045 6.22053 402.045 5.3H400.045ZM400.255 8.34142C400.39 9.2876 400.527 10.0941 400.666 10.756L402.623 10.344C402.496 9.73928 402.366 8.97907 402.235 8.05858L400.255 8.34142ZM400.678 10.8045C400.762 11.1235 400.831 11.3772 400.883 11.5622C400.91 11.6541 400.934 11.7352 400.955 11.8016C400.968 11.8425 401.002 11.9504 401.05 12.0472L402.839 11.1528C402.853 11.1793 402.861 11.1991 402.864 11.2063C402.866 11.2109 402.867 11.2144 402.868 11.2164C402.869 11.2185 402.869 11.2198 402.869 11.22C402.869 11.2202 402.868 11.2181 402.867 11.213C402.865 11.208 402.863 11.2011 402.86 11.1921C402.848 11.1543 402.83 11.0959 402.806 11.0128C402.759 10.8478 402.695 10.6098 402.612 10.2955L400.678 10.8045ZM401.945 10.6H400.395V12.6H401.945V10.6ZM401.333 11.2527C400.628 9.34997 399.654 7.66279 398.405 6.20074L396.884 7.49926C397.97 8.77054 398.829 10.25 399.457 11.9473L401.333 11.2527ZM398.405 6.20074C397.149 4.72928 395.655 3.57597 393.927 2.74818L393.063 4.55181C394.535 5.25736 395.807 6.23738 396.884 7.49926L398.405 6.20074ZM393.942 2.75557C392.188 1.87831 390.232 1.45 388.095 1.45V3.45C389.958 3.45 391.602 3.82169 393.048 4.54443L393.942 2.75557ZM388.095 1.45C386.134 1.45 384.328 1.9059 382.701 2.83054L383.689 4.56945C384.995 3.82743 386.456 3.45 388.095 3.45V1.45ZM382.701 2.83054C381.098 3.74126 379.74 4.99472 378.627 6.57404L380.262 7.72595C381.216 6.37194 382.358 5.3254 383.689 4.56945L382.701 2.83054ZM378.625 6.57782C377.556 8.10951 376.73 9.87552 376.137 11.8642L378.053 12.4358C378.593 10.6245 379.334 9.05715 380.265 7.72218L378.625 6.57782ZM376.137 11.8642C375.54 13.8637 375.245 15.9772 375.245 18.2H377.245C377.245 16.1561 377.516 14.2363 378.053 12.4358L376.137 11.8642ZM375.245 18.2C375.245 20.3049 375.469 22.3463 375.92 24.3224L377.87 23.8776C377.454 22.0537 377.245 20.1618 377.245 18.2H375.245ZM375.924 24.3385C376.414 26.3358 377.172 28.14 378.204 29.7417L379.885 28.6583C378.984 27.26 378.309 25.6642 377.866 23.8615L375.924 24.3385ZM378.21 29.7503C379.267 31.3547 380.656 32.6317 382.361 33.575L383.329 31.825C381.901 31.035 380.756 29.9787 379.88 28.6497L378.21 29.7503ZM382.375 33.5829C384.119 34.5105 386.189 34.95 388.545 34.95V32.95C386.434 32.95 384.704 32.5562 383.315 31.8171L382.375 33.5829ZM388.545 34.95C389.61 34.95 390.822 34.7855 392.17 34.4744L391.72 32.5256C390.468 32.8145 389.413 32.95 388.545 32.95V34.95ZM392.187 34.4701C393.691 34.0942 395.065 33.345 396.307 32.2498L394.983 30.7502C393.958 31.655 392.865 32.2391 391.702 32.5299L392.187 34.4701ZM396.645 31.5V24.2H394.645V31.5H396.645ZM396.645 24.2C396.645 23.6175 396.596 23.0834 396.475 22.6216C396.355 22.1659 396.146 21.704 395.768 21.3601L394.422 22.8399C394.411 22.8294 394.476 22.8841 394.54 23.1284C394.602 23.3666 394.645 23.7158 394.645 24.2H396.645ZM395.802 21.3929C395.484 21.0751 395.05 20.8597 394.617 20.6995C394.164 20.5324 393.616 20.3908 392.986 20.2684L392.604 22.2316C393.174 22.3425 393.609 22.4593 393.923 22.5755C394.079 22.6332 394.194 22.6864 394.275 22.7317C394.314 22.7539 394.343 22.7725 394.362 22.7864C394.381 22.8004 394.388 22.8078 394.388 22.8071L395.802 21.3929ZM392.995 20.2701L390.295 19.7201L389.895 21.6799L392.595 22.2299L392.995 20.2701ZM391.095 20.7V19.65H389.095V20.7H391.095ZM390.095 20.65H406.795V18.65H390.095V20.65ZM405.795 19.65V20.7H407.795V19.65H405.795ZM406.618 19.7157L404.668 20.0657L405.022 22.0343L406.972 21.6843L406.618 19.7157ZM404.654 20.0684C404.02 20.1916 403.464 20.3384 403 20.5161C402.548 20.689 402.113 20.9176 401.788 21.2429L403.202 22.6571C403.243 22.6157 403.383 22.511 403.715 22.3839C404.034 22.2616 404.469 22.1417 405.036 22.0316L404.654 20.0684ZM401.755 21.2773C401.431 21.6336 401.251 22.0861 401.146 22.536C401.039 22.9936 400.995 23.5213 400.995 24.1H402.995C402.995 23.6121 403.034 23.2481 403.094 22.989C403.156 22.7222 403.225 22.633 403.235 22.6227L401.755 21.2773ZM400.995 24.1V33.55H402.995V24.1H400.995ZM401.288 32.8429L401.138 32.9929L402.552 34.4071L402.702 34.2571L401.288 32.8429ZM402.087 32.7299C401.659 32.6226 401.263 32.5458 400.905 32.5061L400.684 34.4939C400.927 34.5209 401.231 34.5774 401.602 34.6701L402.087 32.7299ZM401.037 32.5299C400.652 32.4334 400.172 32.4 399.645 32.4V34.4C400.118 34.4 400.405 34.4333 400.552 34.4701L401.037 32.5299ZM399.645 32.4C398.935 32.4 398.191 32.5182 397.42 32.7385L397.97 34.6615C398.599 34.4818 399.155 34.4 399.645 34.4V32.4ZM397.463 32.7272C396.734 32.9008 395.943 33.1248 395.09 33.3976L395.7 35.3024C396.514 35.0419 397.256 34.8325 397.927 34.6728L397.463 32.7272ZM395.137 33.3838C394.155 33.6456 393.055 33.9086 391.834 34.1726L392.256 36.1274C393.502 35.8581 394.634 35.5878 395.653 35.3162L395.137 33.3838ZM391.828 34.1738C390.713 34.4216 389.437 34.55 387.995 34.55V36.55C389.553 36.55 390.977 36.4117 392.262 36.1262L391.828 34.1738Z" fill="black" mask="url(#path-1-outside-1_58_152)"/>
</g>
<defs>
<filter id="filter0_d_58_152" x="0.413673" y="0.0999985" width="410.381" height="43.75" filterUnits="userSpaceOnUse" color-interpolation-filters="sRGB">
<feFlood flood-opacity="0" result="BackgroundImageFix"/>
<feColorMatrix in="SourceAlpha" type="matrix" values="0 0 0 0 0 0 0 0 0 0 0 0 0 0 0 0 0 0 127 0" result="hardAlpha"/>
<feOffset dy="4"/>
<feGaussianBlur stdDeviation="2"/>
<feComposite in2="hardAlpha" operator="out"/>
<feColorMatrix type="matrix" values="0 0 0 0 0 0 0 0 0 0 0 0 0 0 0 0 0 0 0.25 0"/>
<feBlend mode="normal" in2="BackgroundImageFix" result="effect1_dropShadow_58_152"/>
<feBlend mode="normal" in="SourceGraphic" in2="effect1_dropShadow_58_152" result="shape"/>
</filter>
</defs>
</svg>
