<svg width="53" height="51" viewBox="0 0 53 51" fill="none" xmlns="http://www.w3.org/2000/svg">
<ellipse cx="26.109" cy="25.1134" rx="26" ry="25" transform="rotate(179.75 26.109 25.1134)" fill="#D9D9D9" fill-opacity="0.5"/>
<line x1="32.8181" y1="39.4377" x2="18.7571" y2="25.499" stroke="black"/>
<line x1="33.3835" y1="13.4611" x2="19.4361" y2="25.5222" stroke="black"/>
</svg>
