<svg width="52" height="50" viewBox="0 0 52 50" fill="none" xmlns="http://www.w3.org/2000/svg">
<ellipse cx="26" cy="25" rx="26" ry="25" fill="#D9D9D9" fill-opacity="0.5"/>
<line x1="19.3536" y1="10.6464" x2="33.3536" y2="24.6464" stroke="black"/>
<line x1="18.6746" y1="36.6204" x2="32.6746" y2="24.6204" stroke="black"/>
</svg>
