<svg width="25" height="23" viewBox="0 0 25 23" fill="none" xmlns="http://www.w3.org/2000/svg">
<path d="M11.2 0.775H13.275C13.075 4.7 12.7 17.175 2.35 22.8C2.025 22.325 1.4 21.75 0.825 21.325C11.025 16.125 11.025 4.1 11.2 0.775ZM13.2 1.275C13.275 3.225 14 16.5 24.3 21.225C23.75 21.65 23.175 22.275 22.875 22.8C12.275 17.725 11.575 3.75 11.4 1.45L13.2 1.275Z" fill="white"/>
</svg>
