<svg width="252" height="33" viewBox="0 0 252 33" fill="none" xmlns="http://www.w3.org/2000/svg">
<g filter="url(#filter0_d_58_153)">
<path d="M11.625 21.3H26.975V23.275H11.625V21.3ZM18.275 9.175H25.175V11.125H18.275V9.175ZM17.625 1.175H19.675V22.3H17.625V1.175ZM6.3 2.675L7.55 1.4C8.8 2.525 10.525 4.15 11.4 5.075L10.1 6.575C9.275 5.575 7.575 3.875 6.3 2.675ZM7.675 23.5L7.325 21.625L7.85 20.8L12.825 17.1C12.95 17.65 13.225 18.375 13.425 18.75C8.75 22.4 8.05 22.975 7.675 23.5ZM4.125 8.825H9.1V10.775H4.125V8.825ZM7.675 23.5C7.425 23.125 6.725 22.5 6.375 22.25C6.925 21.8 8 20.675 8 19.275V8.825H9.9V20.5C9.9 20.5 7.675 22.675 7.675 23.5ZM41.6 1.725H43.85C43.625 5.675 43.25 18.125 32.925 23.825C32.575 23.3 31.925 22.7 31.275 22.25C41.475 17 41.425 5.05 41.6 1.725ZM43.75 2.25C43.85 4.225 44.55 17.4 54.85 22.125C54.225 22.575 53.625 23.275 53.3 23.825C42.7 18.725 42 4.75 41.825 2.425L43.75 2.25ZM59.825 5.775H81.375V7.65H59.825V5.775ZM59.7 15.725H81.5V17.6H59.7V15.725ZM76.575 1.475L78.7 2.15C77.675 3.525 76.45 5 75.475 5.95L73.825 5.325C74.75 4.275 75.9 2.625 76.575 1.475ZM69.425 0.999999H71.45V12.55H69.425V0.999999ZM62.5 2.45L64.2 1.65C65.3 2.65 66.5 4.125 66.975 5.125L65.175 6.025C64.7 5.025 63.55 3.5 62.5 2.45ZM72.975 13.7L74.125 12.7C75.55 13.25 77.45 14.125 78.475 14.775L77.225 15.875C76.3 15.225 74.425 14.3 72.975 13.7ZM69.525 13.1H71.625C71 19.05 69.3 22.525 60.15 24.05C59.975 23.525 59.5 22.65 59.1 22.2C67.7 20.95 68.975 18.15 69.525 13.1ZM68.725 6.55L70.375 7.25C68.275 10.225 64.45 12.625 60.6 13.75C60.3 13.225 59.7 12.475 59.25 12.05C63.05 11.15 66.85 9.05 68.725 6.55ZM72.1 6.5C73.975 9 77.75 10.975 81.75 11.8C81.325 12.175 80.775 12.95 80.5 13.475C76.4 12.45 72.575 10.15 70.475 7.125L72.1 6.5ZM71.7 16.35C73.15 19.85 76.575 21.625 82.125 22.1C81.65 22.55 81.1 23.425 80.825 24.025C75 23.275 71.575 21.125 69.85 16.725L71.7 16.35ZM103.5 6.2L105.625 6.85C102.475 15.975 96.775 21.15 87.7 24.075C87.475 23.575 86.825 22.625 86.425 22.125C95.3 19.6 100.725 14.75 103.5 6.2ZM92.35 6.35C95.025 14.275 100.625 19.975 109.65 22.075C109.175 22.55 108.525 23.475 108.2 24.05C98.925 21.65 93.45 15.7 90.35 6.95L92.35 6.35ZM86.725 5.2H109.35V7.15H86.725V5.2ZM96.925 0.974999H99V6.375H96.925V0.974999ZM116.05 2.5H123.225V17.475H116.05V15.6H121.35V4.35H116.05V2.5ZM116.075 8.95H122.15V10.775H116.075V8.95ZM126.65 2.05H134.975V3.925H126.65V2.05ZM126.65 8.1H134.975V9.925H126.65V8.1ZM126.5 14.225H134.95V16.05H126.5V14.225ZM114.95 2.5H116.85V19.775H114.95V2.5ZM134.25 2.05H136.225V21.45C136.225 22.675 135.95 23.3 135.125 23.625C134.275 23.95 132.9 24 130.775 24C130.675 23.45 130.325 22.575 130.025 22.025C131.625 22.1 133.175 22.075 133.625 22.05C134.075 22.025 134.25 21.875 134.25 21.45V2.05ZM125.475 2.05H127.45V11C127.45 15.2 126.825 20.75 122.3 24.2C122 23.8 121.25 23.125 120.825 22.85C125.05 19.625 125.475 14.875 125.475 10.975V2.05ZM145.7 5.8H163.025V7.75H145.7V5.8ZM144.6 13.15H162.125V15.075H144.6V13.15ZM141.85 21.3H164.225V23.25H141.85V21.3ZM152 0.999999H154.075V22.275H152V0.999999ZM146.35 1.375L148.425 1.825C147.325 5.7 145.575 9.425 143.575 11.825C143.175 11.475 142.275 10.875 141.75 10.625C143.8 8.4 145.425 4.95 146.35 1.375ZM173.2 5.8H190.525V7.75H173.2V5.8ZM172.1 13.15H189.625V15.075H172.1V13.15ZM169.35 21.3H191.725V23.25H169.35V21.3ZM179.5 0.999999H181.575V22.275H179.5V0.999999ZM173.85 1.375L175.925 1.825C174.825 5.7 173.075 9.425 171.075 11.825C170.675 11.475 169.775 10.875 169.25 10.625C171.3 8.4 172.925 4.95 173.85 1.375ZM197.2 2.725H218.775V4.775H197.2V2.725ZM209.425 10.15L210.95 8.85C213.85 10.775 217.675 13.6 219.525 15.525L217.875 17.05C216.125 15.125 212.375 12.175 209.425 10.15ZM208.9 3.45L211.1 4.25C208.25 9.425 203.6 14.4 197.925 17.375C197.6 16.875 196.975 16.05 196.55 15.625C201.975 12.925 206.6 8.125 208.9 3.45ZM206.875 8.575L209.05 6.4V24H206.875V8.575ZM230.425 17.275H232.4V21.325C232.4 21.975 232.625 22.1 233.975 22.1C234.575 22.1 237.6 22.1 238.425 22.1C239.475 22.1 239.65 21.8 239.75 19.7C240.2 20.025 241.025 20.3 241.575 20.425C241.325 23.225 240.725 23.9 238.6 23.9C238 23.9 234.375 23.9 233.8 23.9C231.1 23.9 230.425 23.35 230.425 21.35V17.275ZM233.025 16.4L234.5 15.4C235.95 16.35 237.6 17.8 238.325 18.925L236.775 20.075C236.075 18.95 234.475 17.425 233.025 16.4ZM241.075 17.775L242.675 16.775C244.475 18.275 246.425 20.475 247.25 22.075L245.525 23.225C244.75 21.65 242.875 19.375 241.075 17.775ZM226.975 17.025L228.75 17.675C228.125 19.65 227.15 21.825 225.525 23.225L223.875 22.05C225.4 20.85 226.425 18.85 226.975 17.025ZM229.875 8.075V10.05H241.375V8.075H229.875ZM229.875 11.575V13.55H241.375V11.575H229.875ZM229.875 4.6V6.55H241.375V4.6H229.875ZM227.925 3H243.4V15.15H227.925V3ZM234.525 0.725L236.9 1.125C236.375 2.175 235.8 3.2 235.35 3.925L233.55 3.5C233.9 2.675 234.325 1.525 234.525 0.725Z" fill="white"/>
</g>
<defs>
<filter id="filter0_d_58_153" x="0.125" y="0.724998" width="251.125" height="31.475" filterUnits="userSpaceOnUse" color-interpolation-filters="sRGB">
<feFlood flood-opacity="0" result="BackgroundImageFix"/>
<feColorMatrix in="SourceAlpha" type="matrix" values="0 0 0 0 0 0 0 0 0 0 0 0 0 0 0 0 0 0 127 0" result="hardAlpha"/>
<feOffset dy="4"/>
<feGaussianBlur stdDeviation="2"/>
<feComposite in2="hardAlpha" operator="out"/>
<feColorMatrix type="matrix" values="0 0 0 0 0 0 0 0 0 0 0 0 0 0 0 0 0 0 0.25 0"/>
<feBlend mode="normal" in2="BackgroundImageFix" result="effect1_dropShadow_58_153"/>
<feBlend mode="normal" in="SourceGraphic" in2="effect1_dropShadow_58_153" result="shape"/>
</filter>
</defs>
</svg>
